26/07/2018 08:58:51 - INFO - Porta 4444 aberta ...
26/07/2018 08:58:51 - INFO - Aguardando clientes ...
26/07/2018 08:59:01 - INFO - Porta 4444 aberta ...
26/07/2018 08:59:01 - INFO - Aguardando clientes ...
26/07/2018 08:59:12 - INFO - Cliente 0:0:0:0:0:0:0:1 conectado!
26/07/2018 08:59:12 - INFO - Aguardando clientes ...
26/07/2018 08:59:12 - INFO - Cliente 0:0:0:0:0:0:0:1 conectado!
26/07/2018 08:59:12 - INFO - Aguardando clientes ...
26/07/2018 09:04:42 - INFO - Porta 4444 aberta ...
26/07/2018 09:04:42 - INFO - Aguardando clientes ...
26/07/2018 09:04:45 - INFO - Cliente 0:0:0:0:0:0:0:1 conectado!
26/07/2018 09:04:45 - INFO - Aguardando clientes ...
26/07/2018 09:04:45 - INFO - Cliente 0:0:0:0:0:0:0:1 conectado!
26/07/2018 09:04:45 - INFO - Aguardando clientes ...
26/07/2018 09:06:00 - INFO - Porta 4444 aberta ...
26/07/2018 09:06:00 - INFO - Aguardando clientes ...
26/07/2018 09:06:04 - INFO - Cliente 0:0:0:0:0:0:0:1 conectado!
26/07/2018 09:06:04 - INFO - Aguardando clientes ...
26/07/2018 09:06:04 - INFO - Cliente 0:0:0:0:0:0:0:1 conectado!
26/07/2018 09:06:04 - INFO - Aguardando clientes ...
26/07/2018 09:08:30 - INFO - Cliente 0:0:0:0:0:0:0:1 conectado!
26/07/2018 09:08:30 - INFO - Aguardando clientes ...
26/07/2018 09:08:30 - INFO - Cliente 0:0:0:0:0:0:0:1 conectado!
26/07/2018 09:08:30 - INFO - Aguardando clientes ...
26/07/2018 09:10:28 - INFO - Porta 4444 aberta ...
26/07/2018 09:10:28 - INFO - Aguardando clientes ...
26/07/2018 09:10:34 - INFO - Cliente 0:0:0:0:0:0:0:1 conectado!
26/07/2018 09:10:34 - INFO - Aguardando clientes ...
26/07/2018 09:10:34 - INFO - Cliente 0:0:0:0:0:0:0:1 conectado!
26/07/2018 09:10:34 - INFO - Aguardando clientes ...
26/07/2018 09:15:02 - INFO - Cliente 0:0:0:0:0:0:0:1 conectado!
26/07/2018 09:15:02 - INFO - Aguardando clientes ...
26/07/2018 09:15:02 - INFO - Cliente 0:0:0:0:0:0:0:1 conectado!
26/07/2018 09:15:02 - INFO - Aguardando clientes ...
26/07/2018 09:15:28 - INFO - Porta 4444 aberta ...
26/07/2018 09:15:28 - INFO - Aguardando clientes ...
26/07/2018 09:15:30 - INFO - Cliente 0:0:0:0:0:0:0:1 conectado!
26/07/2018 09:15:30 - INFO - Aguardando clientes ...
26/07/2018 09:15:30 - INFO - Cliente 0:0:0:0:0:0:0:1 conectado!
26/07/2018 09:15:30 - INFO - Aguardando clientes ...
26/07/2018 09:15:45 - INFO - Porta 4444 aberta ...
26/07/2018 09:15:51 - INFO - Aguardando clientes ...
26/07/2018 09:15:53 - INFO - Cliente 0:0:0:0:0:0:0:1 conectado!
26/07/2018 09:16:09 - INFO - Aguardando clientes ...
26/07/2018 09:16:36 - INFO - Cliente 0:0:0:0:0:0:0:1 conectado!
26/07/2018 09:16:40 - INFO - Aguardando clientes ...
26/07/2018 09:35:31 - INFO - Porta 4444 aberta ...
26/07/2018 09:35:31 - INFO - Aguardando clientes ...
26/07/2018 09:35:40 - INFO - Cliente 0:0:0:0:0:0:0:1 conectado!
26/07/2018 09:35:40 - INFO - Aguardando clientes ...
26/07/2018 09:35:40 - INFO - Cliente 0:0:0:0:0:0:0:1 conectado!
26/07/2018 09:35:40 - INFO - Aguardando clientes ...
26/07/2018 09:36:21 - INFO - Porta 4444 aberta ...
26/07/2018 09:36:21 - INFO - Aguardando clientes ...
26/07/2018 09:36:27 - INFO - Cliente 0:0:0:0:0:0:0:1 conectado!
26/07/2018 09:36:27 - INFO - Aguardando clientes ...
26/07/2018 09:36:27 - INFO - Cliente 0:0:0:0:0:0:0:1 conectado!
26/07/2018 09:36:27 - INFO - Aguardando clientes ...
26/07/2018 09:38:08 - INFO - Porta 4444 aberta ...
26/07/2018 09:38:08 - INFO - Aguardando clientes ...
26/07/2018 09:38:17 - INFO - Porta 4444 aberta ...
26/07/2018 09:38:17 - INFO - Aguardando clientes ...
26/07/2018 09:38:20 - INFO - Cliente 0:0:0:0:0:0:0:1 conectado!
26/07/2018 09:38:20 - INFO - Aguardando clientes ...
26/07/2018 09:38:20 - INFO - Cliente 0:0:0:0:0:0:0:1 conectado!
26/07/2018 09:38:20 - INFO - Aguardando clientes ...
26/07/2018 09:40:31 - INFO - Porta 4444 aberta ...
26/07/2018 09:40:31 - INFO - Aguardando clientes ...
26/07/2018 09:40:36 - INFO - Cliente 0:0:0:0:0:0:0:1 conectado!
26/07/2018 09:40:36 - INFO - Aguardando clientes ...
26/07/2018 09:40:36 - INFO - Cliente 0:0:0:0:0:0:0:1 conectado!
26/07/2018 09:40:36 - INFO - Aguardando clientes ...
26/07/2018 09:41:31 - INFO - Porta 4444 aberta ...
26/07/2018 09:41:31 - INFO - Aguardando clientes ...
26/07/2018 09:41:36 - INFO - Cliente 0:0:0:0:0:0:0:1 conectado!
26/07/2018 09:41:36 - INFO - Aguardando clientes ...
26/07/2018 09:41:36 - INFO - Cliente 0:0:0:0:0:0:0:1 conectado!
26/07/2018 09:41:36 - INFO - Aguardando clientes ...
26/07/2018 09:52:02 - INFO - Porta 4444 aberta ...
26/07/2018 09:52:02 - INFO - Aguardando clientes ...
26/07/2018 09:52:07 - INFO - Cliente 0:0:0:0:0:0:0:1 conectado!
26/07/2018 09:52:07 - INFO - Aguardando clientes ...
26/07/2018 09:52:07 - INFO - Cliente 0:0:0:0:0:0:0:1 conectado!
26/07/2018 09:52:07 - INFO - Aguardando clientes ...
26/07/2018 09:52:21 - INFO - Cliente 0:0:0:0:0:0:0:1 conectado!
26/07/2018 09:52:21 - INFO - Aguardando clientes ...
26/07/2018 09:54:45 - INFO - Porta 4444 aberta ...
26/07/2018 09:54:45 - INFO - Aguardando clientes ...
26/07/2018 09:54:54 - INFO - Cliente 0:0:0:0:0:0:0:1 conectado!
26/07/2018 09:54:54 - INFO - Aguardando clientes ...
26/07/2018 09:54:54 - INFO - Cliente 0:0:0:0:0:0:0:1 conectado!
26/07/2018 09:54:54 - INFO - Aguardando clientes ...
26/07/2018 09:54:54 - INFO - Cliente 0:0:0:0:0:0:0:1 conectado!
26/07/2018 09:54:54 - INFO - Aguardando clientes ...
26/07/2018 09:55:57 - INFO - Porta 4444 aberta ...
26/07/2018 09:55:57 - INFO - Aguardando clientes ...
26/07/2018 09:56:04 - INFO - Cliente 0:0:0:0:0:0:0:1 conectado!
26/07/2018 09:56:04 - INFO - Aguardando clientes ...
26/07/2018 09:56:04 - INFO - Cliente 0:0:0:0:0:0:0:1 conectado!
26/07/2018 09:56:04 - INFO - Aguardando clientes ...
26/07/2018 09:56:04 - INFO - Cliente 0:0:0:0:0:0:0:1 conectado!
26/07/2018 09:56:04 - INFO - Aguardando clientes ...
26/07/2018 09:57:21 - INFO - Porta 4444 aberta ...
26/07/2018 09:57:21 - INFO - Aguardando clientes ...
26/07/2018 09:57:24 - INFO - Cliente 0:0:0:0:0:0:0:1 conectado!
26/07/2018 09:57:24 - INFO - Aguardando clientes ...
26/07/2018 09:57:24 - INFO - Cliente 0:0:0:0:0:0:0:1 conectado!
26/07/2018 09:57:24 - INFO - Aguardando clientes ...
26/07/2018 09:57:24 - INFO - Cliente 0:0:0:0:0:0:0:1 conectado!
26/07/2018 09:57:24 - INFO - Aguardando clientes ...
26/07/2018 09:59:13 - INFO - Porta 4444 aberta ...
26/07/2018 09:59:13 - INFO - Aguardando clientes ...
26/07/2018 09:59:37 - INFO - Cliente 0:0:0:0:0:0:0:1 conectado!
26/07/2018 09:59:37 - INFO - Aguardando clientes ...
26/07/2018 09:59:37 - INFO - Cliente 0:0:0:0:0:0:0:1 conectado!
26/07/2018 09:59:37 - INFO - Aguardando clientes ...
26/07/2018 09:59:37 - INFO - Cliente 0:0:0:0:0:0:0:1 conectado!
26/07/2018 09:59:37 - INFO - Aguardando clientes ...
26/07/2018 10:04:37 - INFO - Cliente 0:0:0:0:0:0:0:1 conectado!
26/07/2018 10:04:37 - INFO - Aguardando clientes ...
26/07/2018 10:04:37 - INFO - Cliente 0:0:0:0:0:0:0:1 conectado!
26/07/2018 10:04:37 - INFO - Aguardando clientes ...
26/07/2018 10:04:37 - INFO - Cliente 0:0:0:0:0:0:0:1 conectado!
26/07/2018 10:04:37 - INFO - Aguardando clientes ...
26/07/2018 10:09:41 - INFO - Porta 4444 aberta ...
26/07/2018 10:09:41 - INFO - Aguardando clientes ...
26/07/2018 10:09:45 - INFO - Cliente 0:0:0:0:0:0:0:1 conectado!
26/07/2018 10:09:45 - INFO - Aguardando clientes ...
26/07/2018 10:09:45 - INFO - Cliente 0:0:0:0:0:0:0:1 conectado!
26/07/2018 10:09:45 - INFO - Aguardando clientes ...
26/07/2018 10:09:45 - INFO - Cliente 0:0:0:0:0:0:0:1 conectado!
26/07/2018 10:09:45 - INFO - Aguardando clientes ...
26/07/2018 10:10:26 - INFO - Porta 4444 aberta ...
26/07/2018 10:10:26 - INFO - Aguardando clientes ...
26/07/2018 10:10:30 - INFO - Cliente 0:0:0:0:0:0:0:1 conectado!
26/07/2018 10:10:30 - INFO - Aguardando clientes ...
26/07/2018 10:10:30 - INFO - Cliente 0:0:0:0:0:0:0:1 conectado!
26/07/2018 10:10:30 - INFO - Aguardando clientes ...
26/07/2018 10:10:30 - INFO - Cliente 0:0:0:0:0:0:0:1 conectado!
26/07/2018 10:10:30 - INFO - Aguardando clientes ...
26/07/2018 10:12:23 - INFO - Porta 4444 aberta ...
26/07/2018 10:12:23 - INFO - Aguardando clientes ...
26/07/2018 10:12:24 - INFO - Cliente 0:0:0:0:0:0:0:1 conectado!
26/07/2018 10:12:24 - INFO - Aguardando clientes ...
26/07/2018 10:12:24 - INFO - Cliente 0:0:0:0:0:0:0:1 conectado!
26/07/2018 10:12:24 - INFO - Aguardando clientes ...
26/07/2018 10:12:24 - INFO - Cliente 0:0:0:0:0:0:0:1 conectado!
26/07/2018 10:12:24 - INFO - Aguardando clientes ...
26/07/2018 10:15:52 - INFO - Porta 4444 aberta ...
26/07/2018 10:15:52 - INFO - Aguardando clientes ...
26/07/2018 10:15:53 - INFO - Cliente 0:0:0:0:0:0:0:1 conectado!
26/07/2018 10:15:53 - INFO - Aguardando clientes ...
26/07/2018 10:15:53 - INFO - Cliente 0:0:0:0:0:0:0:1 conectado!
26/07/2018 10:15:53 - INFO - Aguardando clientes ...
26/07/2018 10:15:53 - INFO - Cliente 0:0:0:0:0:0:0:1 conectado!
26/07/2018 10:15:53 - INFO - Aguardando clientes ...
26/07/2018 10:19:05 - INFO - Porta 4444 aberta ...
26/07/2018 10:19:05 - INFO - Aguardando clientes ...
26/07/2018 10:19:07 - INFO - Cliente 0:0:0:0:0:0:0:1 conectado!
26/07/2018 10:19:07 - INFO - Aguardando clientes ...
26/07/2018 10:19:07 - INFO - Cliente 0:0:0:0:0:0:0:1 conectado!
26/07/2018 10:19:07 - INFO - Aguardando clientes ...
26/07/2018 10:19:07 - INFO - Cliente 0:0:0:0:0:0:0:1 conectado!
26/07/2018 10:19:07 - INFO - Aguardando clientes ...
26/07/2018 10:19:52 - INFO - Porta 4444 aberta ...
26/07/2018 10:19:52 - INFO - Aguardando clientes ...
26/07/2018 10:19:53 - INFO - Cliente 0:0:0:0:0:0:0:1 conectado!
26/07/2018 10:19:53 - INFO - Aguardando clientes ...
26/07/2018 10:19:53 - INFO - Cliente 0:0:0:0:0:0:0:1 conectado!
26/07/2018 10:19:53 - INFO - Aguardando clientes ...
26/07/2018 10:19:53 - INFO - Cliente 0:0:0:0:0:0:0:1 conectado!
26/07/2018 10:19:53 - INFO - Aguardando clientes ...
26/07/2018 10:23:40 - INFO - Porta 4444 aberta ...
26/07/2018 10:23:40 - INFO - Aguardando clientes ...
26/07/2018 10:23:43 - INFO - Cliente 0:0:0:0:0:0:0:1 conectado!
26/07/2018 10:23:43 - INFO - Aguardando clientes ...
26/07/2018 10:23:43 - INFO - Cliente 0:0:0:0:0:0:0:1 conectado!
26/07/2018 10:23:43 - INFO - Aguardando clientes ...
26/07/2018 10:23:43 - INFO - Cliente 0:0:0:0:0:0:0:1 conectado!
26/07/2018 10:23:43 - INFO - Aguardando clientes ...
26/07/2018 10:24:24 - INFO - Cliente 192.168.0.123 conectado!
26/07/2018 10:24:24 - INFO - Aguardando clientes ...
26/07/2018 10:24:24 - INFO - Cliente 192.168.0.123 conectado!
26/07/2018 10:24:24 - INFO - Aguardando clientes ...
26/07/2018 10:24:24 - INFO - Cliente 192.168.0.123 conectado!
26/07/2018 10:24:24 - INFO - Aguardando clientes ...
26/07/2018 10:24:24 - INFO - Cliente 192.168.0.123 conectado!
26/07/2018 10:24:24 - INFO - Aguardando clientes ...
26/07/2018 10:24:29 - INFO - Cliente 192.168.0.123 conectado!
26/07/2018 10:24:29 - INFO - Aguardando clientes ...
26/07/2018 10:24:29 - INFO - Cliente 192.168.0.123 conectado!
26/07/2018 10:24:29 - INFO - Aguardando clientes ...
26/07/2018 10:24:59 - INFO - Cliente 192.168.0.123 conectado!
26/07/2018 10:24:59 - INFO - Aguardando clientes ...
26/07/2018 10:24:59 - INFO - Cliente 192.168.0.123 conectado!
26/07/2018 10:24:59 - INFO - Aguardando clientes ...
26/07/2018 10:25:19 - INFO - Porta 4444 aberta ...
26/07/2018 10:25:19 - INFO - Aguardando clientes ...
26/07/2018 10:25:20 - INFO - Cliente 192.168.0.123 conectado!
26/07/2018 10:25:20 - INFO - Aguardando clientes ...
26/07/2018 10:25:20 - INFO - Cliente 192.168.0.123 conectado!
26/07/2018 10:25:20 - INFO - Aguardando clientes ...
26/07/2018 10:25:20 - INFO - Cliente 192.168.0.123 conectado!
26/07/2018 10:25:20 - INFO - Aguardando clientes ...
26/07/2018 10:25:20 - INFO - Cliente 192.168.0.123 conectado!
26/07/2018 10:25:20 - INFO - Aguardando clientes ...
26/07/2018 10:25:21 - INFO - Cliente 192.168.0.123 conectado!
26/07/2018 10:25:21 - INFO - Aguardando clientes ...
26/07/2018 10:25:21 - INFO - Cliente 192.168.0.123 conectado!
26/07/2018 10:25:21 - INFO - Aguardando clientes ...
26/07/2018 10:26:09 - INFO - Porta 4444 aberta ...
26/07/2018 10:26:09 - INFO - Aguardando clientes ...
26/07/2018 10:26:12 - INFO - Cliente 192.168.0.123 conectado!
26/07/2018 10:26:12 - INFO - Aguardando clientes ...
26/07/2018 10:26:12 - INFO - Cliente 192.168.0.123 conectado!
26/07/2018 10:26:12 - INFO - Aguardando clientes ...
26/07/2018 10:27:08 - INFO - Porta 4444 aberta ...
26/07/2018 10:27:08 - INFO - Aguardando clientes ...
26/07/2018 10:27:12 - INFO - Cliente 192.168.0.123 conectado!
26/07/2018 10:27:12 - INFO - Aguardando clientes ...
26/07/2018 10:27:12 - INFO - Cliente 192.168.0.123 conectado!
26/07/2018 10:27:12 - INFO - Aguardando clientes ...
26/07/2018 10:27:12 - INFO - Cliente 192.168.0.123 conectado!
26/07/2018 10:27:12 - INFO - Aguardando clientes ...
26/07/2018 10:27:12 - INFO - Cliente 192.168.0.123 conectado!
26/07/2018 10:27:12 - INFO - Aguardando clientes ...
26/07/2018 10:31:12 - INFO - Porta 4444 aberta ...
26/07/2018 10:31:12 - INFO - Aguardando clientes ...
26/07/2018 10:31:14 - INFO - Cliente 192.168.0.123 conectado!
26/07/2018 10:31:14 - INFO - Aguardando clientes ...
26/07/2018 10:31:14 - INFO - Cliente 192.168.0.123 conectado!
26/07/2018 10:31:14 - INFO - Aguardando clientes ...
26/07/2018 10:33:43 - INFO - Cliente 0:0:0:0:0:0:0:1 conectado!
26/07/2018 10:33:43 - INFO - Aguardando clientes ...
26/07/2018 10:33:43 - INFO - Cliente 0:0:0:0:0:0:0:1 conectado!
26/07/2018 10:33:43 - INFO - Aguardando clientes ...
26/07/2018 10:33:43 - INFO - Cliente 0:0:0:0:0:0:0:1 conectado!
26/07/2018 10:33:43 - INFO - Aguardando clientes ...
26/07/2018 10:34:07 - INFO - Porta 4444 aberta ...
26/07/2018 10:34:07 - INFO - Aguardando clientes ...
26/07/2018 10:34:08 - INFO - Cliente 192.168.0.123 conectado!
26/07/2018 10:34:08 - INFO - Aguardando clientes ...
26/07/2018 10:34:08 - INFO - Cliente 192.168.0.123 conectado!
26/07/2018 10:34:08 - INFO - Aguardando clientes ...
26/07/2018 10:36:02 - INFO - Porta 4444 aberta ...
26/07/2018 10:36:02 - INFO - Aguardando clientes ...
26/07/2018 10:36:03 - INFO - Cliente 192.168.0.123 conectado!
26/07/2018 10:36:03 - INFO - Aguardando clientes ...
26/07/2018 10:36:03 - INFO - Cliente 192.168.0.123 conectado!
26/07/2018 10:36:03 - INFO - Aguardando clientes ...
26/07/2018 10:36:42 - INFO - Porta 4444 aberta ...
26/07/2018 10:36:42 - INFO - Aguardando clientes ...
26/07/2018 10:36:44 - INFO - Cliente 192.168.0.123 conectado!
26/07/2018 10:36:44 - INFO - Aguardando clientes ...
26/07/2018 10:36:44 - INFO - Cliente 192.168.0.123 conectado!
26/07/2018 10:36:44 - INFO - Aguardando clientes ...
26/07/2018 10:38:10 - INFO - Porta 4444 aberta ...
26/07/2018 10:38:10 - INFO - Aguardando clientes ...
26/07/2018 10:38:11 - INFO - Cliente 192.168.0.123 conectado!
26/07/2018 10:38:11 - INFO - Aguardando clientes ...
26/07/2018 10:38:11 - INFO - Cliente 192.168.0.123 conectado!
26/07/2018 10:38:11 - INFO - Aguardando clientes ...
26/07/2018 10:53:53 - INFO - Porta 4444 aberta ...
26/07/2018 10:53:53 - INFO - Aguardando clientes ...
26/07/2018 10:53:56 - INFO - Cliente 0:0:0:0:0:0:0:1 conectado!
26/07/2018 10:53:56 - INFO - Aguardando clientes ...
26/07/2018 10:53:56 - INFO - Cliente 0:0:0:0:0:0:0:1 conectado!
26/07/2018 10:53:56 - INFO - Aguardando clientes ...
26/07/2018 10:53:56 - INFO - Cliente 0:0:0:0:0:0:0:1 conectado!
26/07/2018 10:53:56 - INFO - Aguardando clientes ...
26/07/2018 10:53:57 - INFO - Cliente 0:0:0:0:0:0:0:1 conectado!
26/07/2018 10:53:57 - INFO - Aguardando clientes ...
26/07/2018 10:53:57 - INFO - Cliente 0:0:0:0:0:0:0:1 conectado!
26/07/2018 10:53:57 - INFO - Aguardando clientes ...
26/07/2018 10:53:57 - INFO - Cliente 0:0:0:0:0:0:0:1 conectado!
26/07/2018 10:53:58 - INFO - Aguardando clientes ...
26/07/2018 10:53:58 - INFO - Cliente 0:0:0:0:0:0:0:1 conectado!
26/07/2018 10:53:58 - INFO - Aguardando clientes ...
26/07/2018 10:53:58 - INFO - Cliente 0:0:0:0:0:0:0:1 conectado!
26/07/2018 10:53:58 - INFO - Aguardando clientes ...
26/07/2018 10:53:58 - INFO - Cliente 0:0:0:0:0:0:0:1 conectado!
26/07/2018 10:53:58 - INFO - Aguardando clientes ...
26/07/2018 10:53:58 - INFO - Cliente 0:0:0:0:0:0:0:1 conectado!
26/07/2018 10:53:58 - INFO - Aguardando clientes ...
26/07/2018 10:53:58 - INFO - Cliente 0:0:0:0:0:0:0:1 conectado!
26/07/2018 10:53:58 - INFO - Aguardando clientes ...
26/07/2018 10:53:58 - INFO - Cliente 0:0:0:0:0:0:0:1 conectado!
26/07/2018 10:53:58 - INFO - Aguardando clientes ...
26/07/2018 10:53:58 - INFO - Cliente 0:0:0:0:0:0:0:1 conectado!
26/07/2018 10:53:58 - INFO - Aguardando clientes ...
26/07/2018 10:53:58 - INFO - Cliente 0:0:0:0:0:0:0:1 conectado!
26/07/2018 10:53:58 - INFO - Aguardando clientes ...
26/07/2018 10:53:58 - INFO - Cliente 0:0:0:0:0:0:0:1 conectado!
26/07/2018 10:53:58 - INFO - Aguardando clientes ...
26/07/2018 10:54:27 - INFO - Porta 4444 aberta ...
26/07/2018 10:54:27 - INFO - Aguardando clientes ...
26/07/2018 10:54:29 - INFO - Cliente 0:0:0:0:0:0:0:1 conectado!
26/07/2018 10:54:29 - INFO - Aguardando clientes ...
26/07/2018 10:54:29 - INFO - Cliente 0:0:0:0:0:0:0:1 conectado!
26/07/2018 10:54:29 - INFO - Aguardando clientes ...
26/07/2018 10:54:29 - INFO - Cliente 0:0:0:0:0:0:0:1 conectado!
26/07/2018 10:54:29 - INFO - Aguardando clientes ...
26/07/2018 10:55:55 - INFO - Porta 4444 aberta ...
26/07/2018 10:55:55 - INFO - Aguardando clientes ...
26/07/2018 10:55:57 - INFO - Cliente 0:0:0:0:0:0:0:1 conectado!
26/07/2018 10:55:57 - INFO - Aguardando clientes ...
26/07/2018 10:55:57 - INFO - Cliente 0:0:0:0:0:0:0:1 conectado!
26/07/2018 10:55:57 - INFO - Aguardando clientes ...
26/07/2018 10:56:04 - INFO - Cliente 0:0:0:0:0:0:0:1 conectado!
26/07/2018 10:56:04 - INFO - Aguardando clientes ...
26/07/2018 10:58:49 - INFO - Porta 4444 aberta ...
26/07/2018 10:58:49 - INFO - Aguardando clientes ...
26/07/2018 10:58:53 - INFO - Cliente 0:0:0:0:0:0:0:1 conectado!
26/07/2018 10:58:53 - INFO - Aguardando clientes ...
26/07/2018 10:58:53 - INFO - Cliente 0:0:0:0:0:0:0:1 conectado!
26/07/2018 10:58:54 - INFO - Aguardando clientes ...
26/07/2018 10:58:54 - INFO - Cliente 0:0:0:0:0:0:0:1 conectado!
26/07/2018 10:58:54 - INFO - Aguardando clientes ...
26/07/2018 10:58:54 - INFO - Cliente 0:0:0:0:0:0:0:1 conectado!
26/07/2018 10:58:54 - INFO - Aguardando clientes ...
26/07/2018 10:59:25 - INFO - Cliente 0:0:0:0:0:0:0:1 conectado!
26/07/2018 10:59:25 - INFO - Aguardando clientes ...
26/07/2018 10:59:25 - INFO - Cliente 0:0:0:0:0:0:0:1 conectado!
26/07/2018 10:59:25 - INFO - Aguardando clientes ...
26/07/2018 10:59:25 - INFO - Cliente 0:0:0:0:0:0:0:1 conectado!
26/07/2018 10:59:25 - INFO - Aguardando clientes ...
26/07/2018 10:59:30 - INFO - Cliente 0:0:0:0:0:0:0:1 conectado!
26/07/2018 10:59:30 - INFO - Aguardando clientes ...
26/07/2018 10:59:51 - INFO - Cliente 0:0:0:0:0:0:0:1 conectado!
26/07/2018 10:59:51 - INFO - Aguardando clientes ...
26/07/2018 10:59:51 - INFO - Cliente 0:0:0:0:0:0:0:1 conectado!
26/07/2018 10:59:51 - INFO - Aguardando clientes ...
26/07/2018 10:59:51 - INFO - Cliente 0:0:0:0:0:0:0:1 conectado!
26/07/2018 10:59:51 - INFO - Aguardando clientes ...
26/07/2018 11:00:04 - INFO - Cliente 0:0:0:0:0:0:0:1 conectado!
26/07/2018 11:00:04 - INFO - Aguardando clientes ...
26/07/2018 11:00:13 - INFO - Cliente 0:0:0:0:0:0:0:1 conectado!
26/07/2018 11:00:13 - INFO - Aguardando clientes ...
26/07/2018 11:00:13 - INFO - Cliente 0:0:0:0:0:0:0:1 conectado!
26/07/2018 11:00:13 - INFO - Aguardando clientes ...
26/07/2018 11:01:01 - INFO - Cliente 192.168.0.123 conectado!
26/07/2018 11:01:01 - INFO - Aguardando clientes ...
26/07/2018 11:01:01 - INFO - Cliente 192.168.0.123 conectado!
26/07/2018 11:01:01 - INFO - Aguardando clientes ...
26/07/2018 11:01:46 - INFO - Cliente 0:0:0:0:0:0:0:1 conectado!
26/07/2018 11:01:46 - INFO - Aguardando clientes ...
26/07/2018 11:01:47 - INFO - Cliente 0:0:0:0:0:0:0:1 conectado!
26/07/2018 11:01:47 - INFO - Aguardando clientes ...
26/07/2018 11:05:14 - INFO - Porta 4444 aberta ...
26/07/2018 11:05:14 - INFO - Aguardando clientes ...
26/07/2018 11:05:20 - INFO - Cliente 0:0:0:0:0:0:0:1 conectado!
26/07/2018 11:05:20 - INFO - Aguardando clientes ...
26/07/2018 11:05:20 - INFO - Cliente 0:0:0:0:0:0:0:1 conectado!
26/07/2018 11:05:20 - INFO - Aguardando clientes ...
26/07/2018 11:05:25 - INFO - Cliente 0:0:0:0:0:0:0:1 conectado!
26/07/2018 11:05:25 - INFO - Aguardando clientes ...
26/07/2018 11:05:55 - INFO - Cliente 0:0:0:0:0:0:0:1 conectado!
26/07/2018 11:05:55 - INFO - Aguardando clientes ...
26/07/2018 11:06:23 - INFO - Cliente 0:0:0:0:0:0:0:1 conectado!
26/07/2018 11:06:23 - INFO - Aguardando clientes ...
26/07/2018 11:06:23 - INFO - Cliente 0:0:0:0:0:0:0:1 conectado!
26/07/2018 11:06:23 - INFO - Aguardando clientes ...
26/07/2018 11:06:23 - INFO - Cliente 0:0:0:0:0:0:0:1 conectado!
26/07/2018 11:06:23 - INFO - Aguardando clientes ...
26/07/2018 11:06:23 - INFO - Cliente 0:0:0:0:0:0:0:1 conectado!
26/07/2018 11:06:23 - INFO - Aguardando clientes ...
26/07/2018 11:06:24 - INFO - Cliente 0:0:0:0:0:0:0:1 conectado!
26/07/2018 11:06:24 - INFO - Aguardando clientes ...
26/07/2018 11:06:24 - INFO - Cliente 0:0:0:0:0:0:0:1 conectado!
26/07/2018 11:06:24 - INFO - Aguardando clientes ...
26/07/2018 11:06:24 - INFO - Cliente 0:0:0:0:0:0:0:1 conectado!
26/07/2018 11:06:24 - INFO - Aguardando clientes ...
26/07/2018 11:06:24 - INFO - Cliente 0:0:0:0:0:0:0:1 conectado!
26/07/2018 11:06:24 - INFO - Aguardando clientes ...
26/07/2018 11:06:24 - INFO - Cliente 0:0:0:0:0:0:0:1 conectado!
26/07/2018 11:06:24 - INFO - Aguardando clientes ...
26/07/2018 11:06:24 - INFO - Cliente 0:0:0:0:0:0:0:1 conectado!
26/07/2018 11:06:24 - INFO - Aguardando clientes ...
26/07/2018 11:06:25 - INFO - Cliente 0:0:0:0:0:0:0:1 conectado!
26/07/2018 11:06:25 - INFO - Aguardando clientes ...
26/07/2018 11:06:25 - INFO - Cliente 0:0:0:0:0:0:0:1 conectado!
26/07/2018 11:06:25 - INFO - Aguardando clientes ...
26/07/2018 11:06:25 - INFO - Cliente 0:0:0:0:0:0:0:1 conectado!
26/07/2018 11:06:25 - INFO - Aguardando clientes ...
26/07/2018 11:06:25 - INFO - Cliente 0:0:0:0:0:0:0:1 conectado!
26/07/2018 11:06:25 - INFO - Aguardando clientes ...
26/07/2018 11:06:25 - INFO - Cliente 0:0:0:0:0:0:0:1 conectado!
26/07/2018 11:06:25 - INFO - Aguardando clientes ...
26/07/2018 11:06:25 - INFO - Cliente 0:0:0:0:0:0:0:1 conectado!
26/07/2018 11:06:25 - INFO - Aguardando clientes ...
26/07/2018 11:07:20 - INFO - Porta 4444 aberta ...
26/07/2018 11:07:20 - INFO - Aguardando clientes ...
26/07/2018 11:07:25 - INFO - Cliente 0:0:0:0:0:0:0:1 conectado!
26/07/2018 11:07:25 - INFO - Aguardando clientes ...
26/07/2018 11:07:25 - INFO - Cliente 0:0:0:0:0:0:0:1 conectado!
26/07/2018 11:07:25 - INFO - Aguardando clientes ...
26/07/2018 11:07:25 - INFO - Cliente 0:0:0:0:0:0:0:1 conectado!
26/07/2018 11:07:25 - INFO - Aguardando clientes ...
26/07/2018 11:08:25 - INFO - Cliente 0:0:0:0:0:0:0:1 conectado!
26/07/2018 11:08:25 - INFO - Aguardando clientes ...
26/07/2018 11:08:25 - INFO - Cliente 0:0:0:0:0:0:0:1 conectado!
26/07/2018 11:08:25 - INFO - Aguardando clientes ...
26/07/2018 11:08:25 - INFO - Cliente 0:0:0:0:0:0:0:1 conectado!
26/07/2018 11:08:25 - INFO - Aguardando clientes ...
26/07/2018 11:08:40 - INFO - Porta 4444 aberta ...
26/07/2018 11:08:40 - INFO - Aguardando clientes ...
26/07/2018 11:08:45 - INFO - Cliente 0:0:0:0:0:0:0:1 conectado!
26/07/2018 11:08:45 - INFO - Aguardando clientes ...
26/07/2018 11:08:45 - INFO - Cliente 0:0:0:0:0:0:0:1 conectado!
26/07/2018 11:08:45 - INFO - Aguardando clientes ...
26/07/2018 11:08:45 - INFO - Cliente 0:0:0:0:0:0:0:1 conectado!
26/07/2018 11:08:45 - INFO - Aguardando clientes ...
26/07/2018 11:09:50 - INFO - Porta 4444 aberta ...
26/07/2018 11:09:50 - INFO - Aguardando clientes ...
26/07/2018 11:09:53 - INFO - Cliente 0:0:0:0:0:0:0:1 conectado!
26/07/2018 11:09:53 - INFO - Aguardando clientes ...
26/07/2018 11:09:53 - INFO - Cliente 0:0:0:0:0:0:0:1 conectado!
26/07/2018 11:09:53 - INFO - Aguardando clientes ...
26/07/2018 11:09:53 - INFO - Cliente 0:0:0:0:0:0:0:1 conectado!
26/07/2018 11:09:53 - INFO - Aguardando clientes ...
26/07/2018 11:10:10 - INFO - Cliente 0:0:0:0:0:0:0:1 conectado!
26/07/2018 11:10:10 - INFO - Aguardando clientes ...
26/07/2018 11:10:10 - INFO - Cliente 0:0:0:0:0:0:0:1 conectado!
26/07/2018 11:10:10 - INFO - Aguardando clientes ...
26/07/2018 11:10:10 - INFO - Cliente 0:0:0:0:0:0:0:1 conectado!
26/07/2018 11:10:10 - INFO - Aguardando clientes ...
26/07/2018 11:10:11 - INFO - Cliente 0:0:0:0:0:0:0:1 conectado!
26/07/2018 11:10:11 - INFO - Aguardando clientes ...
26/07/2018 11:10:11 - INFO - Cliente 0:0:0:0:0:0:0:1 conectado!
26/07/2018 11:10:11 - INFO - Aguardando clientes ...
26/07/2018 11:10:11 - INFO - Cliente 0:0:0:0:0:0:0:1 conectado!
26/07/2018 11:10:11 - INFO - Aguardando clientes ...
26/07/2018 11:10:18 - INFO - Cliente 0:0:0:0:0:0:0:1 conectado!
26/07/2018 11:10:18 - INFO - Aguardando clientes ...
26/07/2018 11:10:18 - INFO - Cliente 0:0:0:0:0:0:0:1 conectado!
26/07/2018 11:10:18 - INFO - Aguardando clientes ...
26/07/2018 11:10:18 - INFO - Cliente 0:0:0:0:0:0:0:1 conectado!
26/07/2018 11:10:18 - INFO - Aguardando clientes ...
26/07/2018 11:10:18 - INFO - Cliente 0:0:0:0:0:0:0:1 conectado!
26/07/2018 11:10:18 - INFO - Aguardando clientes ...
26/07/2018 11:10:19 - INFO - Cliente 0:0:0:0:0:0:0:1 conectado!
26/07/2018 11:10:19 - INFO - Aguardando clientes ...
26/07/2018 11:10:19 - INFO - Cliente 0:0:0:0:0:0:0:1 conectado!
26/07/2018 11:10:19 - INFO - Aguardando clientes ...
26/07/2018 11:10:21 - INFO - Cliente 0:0:0:0:0:0:0:1 conectado!
26/07/2018 11:10:21 - INFO - Aguardando clientes ...
26/07/2018 11:10:21 - INFO - Cliente 0:0:0:0:0:0:0:1 conectado!
26/07/2018 11:10:21 - INFO - Aguardando clientes ...
26/07/2018 11:10:21 - INFO - Cliente 0:0:0:0:0:0:0:1 conectado!
26/07/2018 11:10:21 - INFO - Aguardando clientes ...
26/07/2018 11:10:21 - INFO - Cliente 0:0:0:0:0:0:0:1 conectado!
26/07/2018 11:10:21 - INFO - Aguardando clientes ...
26/07/2018 11:10:22 - INFO - Cliente 0:0:0:0:0:0:0:1 conectado!
26/07/2018 11:10:22 - INFO - Aguardando clientes ...
26/07/2018 11:10:22 - INFO - Cliente 0:0:0:0:0:0:0:1 conectado!
26/07/2018 11:10:22 - INFO - Aguardando clientes ...
26/07/2018 11:10:22 - INFO - Cliente 0:0:0:0:0:0:0:1 conectado!
26/07/2018 11:10:22 - INFO - Aguardando clientes ...
26/07/2018 11:10:22 - INFO - Cliente 0:0:0:0:0:0:0:1 conectado!
26/07/2018 11:10:22 - INFO - Aguardando clientes ...
26/07/2018 11:10:23 - INFO - Cliente 0:0:0:0:0:0:0:1 conectado!
26/07/2018 11:10:23 - INFO - Aguardando clientes ...
26/07/2018 11:10:23 - INFO - Cliente 0:0:0:0:0:0:0:1 conectado!
26/07/2018 11:10:23 - INFO - Aguardando clientes ...
26/07/2018 11:10:23 - INFO - Cliente 0:0:0:0:0:0:0:1 conectado!
26/07/2018 11:10:23 - INFO - Aguardando clientes ...
26/07/2018 11:10:23 - INFO - Cliente 0:0:0:0:0:0:0:1 conectado!
26/07/2018 11:10:23 - INFO - Aguardando clientes ...
26/07/2018 11:10:24 - INFO - Cliente 0:0:0:0:0:0:0:1 conectado!
26/07/2018 11:10:24 - INFO - Aguardando clientes ...
26/07/2018 11:10:24 - INFO - Cliente 0:0:0:0:0:0:0:1 conectado!
26/07/2018 11:10:24 - INFO - Aguardando clientes ...
26/07/2018 11:10:25 - INFO - Cliente 0:0:0:0:0:0:0:1 conectado!
26/07/2018 11:10:25 - INFO - Aguardando clientes ...
26/07/2018 11:10:25 - INFO - Cliente 0:0:0:0:0:0:0:1 conectado!
26/07/2018 11:10:25 - INFO - Aguardando clientes ...
26/07/2018 11:10:25 - INFO - Cliente 0:0:0:0:0:0:0:1 conectado!
26/07/2018 11:10:25 - INFO - Aguardando clientes ...
26/07/2018 11:10:25 - INFO - Cliente 0:0:0:0:0:0:0:1 conectado!
26/07/2018 11:10:25 - INFO - Aguardando clientes ...
26/07/2018 11:10:26 - INFO - Cliente 0:0:0:0:0:0:0:1 conectado!
26/07/2018 11:10:26 - INFO - Aguardando clientes ...
26/07/2018 11:10:26 - INFO - Cliente 0:0:0:0:0:0:0:1 conectado!
26/07/2018 11:10:26 - INFO - Aguardando clientes ...
26/07/2018 11:10:26 - INFO - Cliente 0:0:0:0:0:0:0:1 conectado!
26/07/2018 11:10:26 - INFO - Aguardando clientes ...
26/07/2018 11:10:26 - INFO - Cliente 0:0:0:0:0:0:0:1 conectado!
26/07/2018 11:10:26 - INFO - Aguardando clientes ...
26/07/2018 11:10:26 - INFO - Cliente 0:0:0:0:0:0:0:1 conectado!
26/07/2018 11:10:26 - INFO - Aguardando clientes ...
26/07/2018 11:10:26 - INFO - Cliente 0:0:0:0:0:0:0:1 conectado!
26/07/2018 11:10:26 - INFO - Aguardando clientes ...
26/07/2018 11:10:26 - INFO - Cliente 0:0:0:0:0:0:0:1 conectado!
26/07/2018 11:10:26 - INFO - Aguardando clientes ...
26/07/2018 11:10:26 - INFO - Cliente 0:0:0:0:0:0:0:1 conectado!
26/07/2018 11:10:26 - INFO - Aguardando clientes ...
26/07/2018 11:10:26 - INFO - Cliente 0:0:0:0:0:0:0:1 conectado!
26/07/2018 11:10:26 - INFO - Aguardando clientes ...
26/07/2018 11:10:26 - INFO - Cliente 0:0:0:0:0:0:0:1 conectado!
26/07/2018 11:10:26 - INFO - Aguardando clientes ...
26/07/2018 11:11:17 - INFO - Cliente 0:0:0:0:0:0:0:1 conectado!
26/07/2018 11:11:17 - INFO - Aguardando clientes ...
26/07/2018 11:11:17 - INFO - Cliente 0:0:0:0:0:0:0:1 conectado!
26/07/2018 11:11:17 - INFO - Aguardando clientes ...
26/07/2018 11:11:17 - INFO - Cliente 0:0:0:0:0:0:0:1 conectado!
26/07/2018 11:11:17 - INFO - Aguardando clientes ...
26/07/2018 11:11:36 - INFO - Porta 4444 aberta ...
26/07/2018 11:11:36 - INFO - Aguardando clientes ...
26/07/2018 11:11:41 - INFO - Cliente 0:0:0:0:0:0:0:1 conectado!
26/07/2018 11:11:41 - INFO - Aguardando clientes ...
26/07/2018 11:11:43 - INFO - Cliente 0:0:0:0:0:0:0:1 conectado!
26/07/2018 11:11:43 - INFO - Aguardando clientes ...
26/07/2018 11:11:45 - INFO - Cliente 0:0:0:0:0:0:0:1 conectado!
26/07/2018 11:11:45 - INFO - Aguardando clientes ...
26/07/2018 11:11:46 - INFO - Cliente 0:0:0:0:0:0:0:1 conectado!
26/07/2018 11:11:46 - INFO - Aguardando clientes ...
26/07/2018 11:11:47 - INFO - Cliente 0:0:0:0:0:0:0:1 conectado!
26/07/2018 11:11:47 - INFO - Aguardando clientes ...
26/07/2018 11:11:50 - INFO - Cliente 0:0:0:0:0:0:0:1 conectado!
26/07/2018 11:11:50 - INFO - Aguardando clientes ...
26/07/2018 11:11:50 - INFO - Cliente 0:0:0:0:0:0:0:1 conectado!
26/07/2018 11:11:50 - INFO - Aguardando clientes ...
26/07/2018 11:11:54 - INFO - Cliente 0:0:0:0:0:0:0:1 conectado!
26/07/2018 11:11:54 - INFO - Aguardando clientes ...
26/07/2018 11:11:55 - INFO - Cliente 0:0:0:0:0:0:0:1 conectado!
26/07/2018 11:11:55 - INFO - Aguardando clientes ...
26/07/2018 11:11:55 - INFO - Cliente 0:0:0:0:0:0:0:1 conectado!
26/07/2018 11:11:55 - INFO - Aguardando clientes ...
26/07/2018 11:11:55 - INFO - Cliente 0:0:0:0:0:0:0:1 conectado!
26/07/2018 11:11:55 - INFO - Aguardando clientes ...
26/07/2018 11:11:56 - INFO - Cliente 0:0:0:0:0:0:0:1 conectado!
26/07/2018 11:11:56 - INFO - Aguardando clientes ...
26/07/2018 11:11:56 - INFO - Cliente 0:0:0:0:0:0:0:1 conectado!
26/07/2018 11:11:56 - INFO - Aguardando clientes ...
26/07/2018 11:11:56 - INFO - Cliente 0:0:0:0:0:0:0:1 conectado!
26/07/2018 11:11:56 - INFO - Aguardando clientes ...
26/07/2018 11:11:56 - INFO - Cliente 0:0:0:0:0:0:0:1 conectado!
26/07/2018 11:11:56 - INFO - Aguardando clientes ...
26/07/2018 11:13:41 - INFO - Porta 4444 aberta ...
26/07/2018 11:13:41 - INFO - Aguardando clientes ...
26/07/2018 11:13:43 - INFO - Cliente 0:0:0:0:0:0:0:1 conectado!
26/07/2018 11:13:43 - INFO - Aguardando clientes ...
26/07/2018 11:13:43 - INFO - Cliente 0:0:0:0:0:0:0:1 conectado!
26/07/2018 11:13:43 - INFO - Aguardando clientes ...
26/07/2018 11:13:43 - INFO - Cliente 0:0:0:0:0:0:0:1 conectado!
26/07/2018 11:13:43 - INFO - Aguardando clientes ...
26/07/2018 11:13:45 - INFO - Cliente 0:0:0:0:0:0:0:1 conectado!
26/07/2018 11:13:45 - INFO - Aguardando clientes ...
26/07/2018 11:14:31 - INFO - Cliente 0:0:0:0:0:0:0:1 conectado!
26/07/2018 11:14:31 - INFO - Aguardando clientes ...
26/07/2018 11:14:31 - INFO - Cliente 0:0:0:0:0:0:0:1 conectado!
26/07/2018 11:14:31 - INFO - Aguardando clientes ...
26/07/2018 11:14:31 - INFO - Cliente 0:0:0:0:0:0:0:1 conectado!
26/07/2018 11:14:31 - INFO - Aguardando clientes ...
26/07/2018 11:14:35 - INFO - Cliente 0:0:0:0:0:0:0:1 conectado!
26/07/2018 11:14:35 - INFO - Aguardando clientes ...
26/07/2018 11:15:05 - INFO - Porta 4444 aberta ...
26/07/2018 11:15:05 - INFO - Aguardando clientes ...
26/07/2018 11:15:11 - INFO - Cliente 0:0:0:0:0:0:0:1 conectado!
26/07/2018 11:15:11 - INFO - Aguardando clientes ...
26/07/2018 11:15:11 - INFO - Cliente 0:0:0:0:0:0:0:1 conectado!
26/07/2018 11:15:11 - INFO - Aguardando clientes ...
26/07/2018 11:15:11 - INFO - Cliente 0:0:0:0:0:0:0:1 conectado!
26/07/2018 11:15:11 - INFO - Aguardando clientes ...
26/07/2018 11:15:11 - INFO - Cliente 0:0:0:0:0:0:0:1 conectado!
26/07/2018 11:15:11 - INFO - Aguardando clientes ...
26/07/2018 11:15:11 - INFO - Cliente 0:0:0:0:0:0:0:1 conectado!
26/07/2018 11:15:11 - INFO - Aguardando clientes ...
26/07/2018 11:15:11 - INFO - Cliente 0:0:0:0:0:0:0:1 conectado!
26/07/2018 11:15:11 - INFO - Aguardando clientes ...
26/07/2018 11:15:11 - INFO - Cliente 0:0:0:0:0:0:0:1 conectado!
26/07/2018 11:15:11 - INFO - Aguardando clientes ...
26/07/2018 11:15:16 - INFO - Cliente 0:0:0:0:0:0:0:1 conectado!
26/07/2018 11:15:16 - INFO - Aguardando clientes ...
26/07/2018 11:15:46 - INFO - Cliente 0:0:0:0:0:0:0:1 conectado!
26/07/2018 11:15:46 - INFO - Aguardando clientes ...
26/07/2018 11:16:46 - INFO - Cliente 0:0:0:0:0:0:0:1 conectado!
26/07/2018 11:16:46 - INFO - Aguardando clientes ...
26/07/2018 11:23:15 - INFO - Porta 4444 aberta ...
26/07/2018 11:23:15 - INFO - Aguardando clientes ...
26/07/2018 11:23:20 - INFO - Cliente 0:0:0:0:0:0:0:1 conectado!
26/07/2018 11:23:20 - INFO - Aguardando clientes ...
26/07/2018 11:23:46 - INFO - Cliente 0:0:0:0:0:0:0:1 conectado!
26/07/2018 11:23:46 - INFO - Aguardando clientes ...
26/07/2018 11:23:47 - INFO - Cliente 0:0:0:0:0:0:0:1 conectado!
26/07/2018 11:23:47 - INFO - Aguardando clientes ...
26/07/2018 11:23:47 - INFO - Cliente 0:0:0:0:0:0:0:1 conectado!
26/07/2018 11:23:47 - INFO - Aguardando clientes ...
26/07/2018 11:23:47 - INFO - Cliente 0:0:0:0:0:0:0:1 conectado!
26/07/2018 11:23:47 - INFO - Aguardando clientes ...
26/07/2018 11:23:47 - INFO - Cliente 0:0:0:0:0:0:0:1 conectado!
26/07/2018 11:23:47 - INFO - Aguardando clientes ...
26/07/2018 11:23:47 - INFO - Cliente 0:0:0:0:0:0:0:1 conectado!
26/07/2018 11:23:47 - INFO - Aguardando clientes ...
26/07/2018 11:23:48 - INFO - Cliente 0:0:0:0:0:0:0:1 conectado!
26/07/2018 11:23:48 - INFO - Aguardando clientes ...
26/07/2018 11:24:06 - INFO - Porta 4444 aberta ...
26/07/2018 11:24:06 - INFO - Aguardando clientes ...
26/07/2018 11:24:08 - INFO - Cliente 0:0:0:0:0:0:0:1 conectado!
26/07/2018 11:24:08 - INFO - Aguardando clientes ...
26/07/2018 11:24:08 - INFO - Cliente 0:0:0:0:0:0:0:1 conectado!
26/07/2018 11:24:08 - INFO - Aguardando clientes ...
26/07/2018 11:24:12 - INFO - Cliente 0:0:0:0:0:0:0:1 conectado!
26/07/2018 11:24:12 - INFO - Aguardando clientes ...
26/07/2018 11:24:12 - INFO - Cliente 0:0:0:0:0:0:0:1 conectado!
26/07/2018 11:24:12 - INFO - Aguardando clientes ...
26/07/2018 11:24:53 - INFO - Porta 4444 aberta ...
26/07/2018 11:24:53 - INFO - Aguardando clientes ...
26/07/2018 11:25:02 - INFO - Cliente 0:0:0:0:0:0:0:1 conectado!
26/07/2018 11:25:02 - INFO - Aguardando clientes ...
26/07/2018 11:25:02 - INFO - Cliente 0:0:0:0:0:0:0:1 conectado!
26/07/2018 11:25:02 - INFO - Aguardando clientes ...
26/07/2018 11:25:02 - INFO - Cliente 0:0:0:0:0:0:0:1 conectado!
26/07/2018 11:25:02 - INFO - Aguardando clientes ...
26/07/2018 11:25:02 - INFO - Cliente 0:0:0:0:0:0:0:1 conectado!
26/07/2018 11:25:02 - INFO - Aguardando clientes ...
26/07/2018 11:25:17 - INFO - Cliente 0:0:0:0:0:0:0:1 conectado!
26/07/2018 11:25:17 - INFO - Aguardando clientes ...
26/07/2018 11:25:17 - INFO - Cliente 0:0:0:0:0:0:0:1 conectado!
26/07/2018 11:25:17 - INFO - Aguardando clientes ...
26/07/2018 11:25:17 - INFO - Cliente 0:0:0:0:0:0:0:1 conectado!
26/07/2018 11:25:17 - INFO - Aguardando clientes ...
26/07/2018 11:25:17 - INFO - Cliente 0:0:0:0:0:0:0:1 conectado!
26/07/2018 11:25:17 - INFO - Aguardando clientes ...
26/07/2018 11:25:56 - INFO - Cliente 192.168.0.123 conectado!
26/07/2018 11:25:56 - INFO - Aguardando clientes ...
26/07/2018 11:25:56 - INFO - Cliente 192.168.0.123 conectado!
26/07/2018 11:25:56 - INFO - Aguardando clientes ...
26/07/2018 11:25:56 - INFO - Cliente 192.168.0.123 conectado!
26/07/2018 11:25:56 - INFO - Aguardando clientes ...
26/07/2018 11:26:12 - INFO - Cliente 192.168.0.123 conectado!
26/07/2018 11:26:12 - INFO - Aguardando clientes ...
26/07/2018 11:26:12 - INFO - Cliente 192.168.0.123 conectado!
26/07/2018 11:26:12 - INFO - Aguardando clientes ...
26/07/2018 11:26:12 - INFO - Cliente 192.168.0.123 conectado!
26/07/2018 11:26:12 - INFO - Aguardando clientes ...
26/07/2018 11:26:26 - INFO - Cliente 192.168.0.123 conectado!
26/07/2018 11:26:26 - INFO - Aguardando clientes ...
26/07/2018 11:26:26 - INFO - Cliente 192.168.0.123 conectado!
26/07/2018 11:26:26 - INFO - Aguardando clientes ...
26/07/2018 11:26:26 - INFO - Cliente 192.168.0.123 conectado!
26/07/2018 11:26:26 - INFO - Aguardando clientes ...
26/07/2018 11:26:29 - INFO - Cliente 192.168.0.123 conectado!
26/07/2018 11:26:29 - INFO - Aguardando clientes ...
26/07/2018 11:26:29 - INFO - Cliente 192.168.0.123 conectado!
26/07/2018 11:26:29 - INFO - Aguardando clientes ...
26/07/2018 11:26:29 - INFO - Cliente 192.168.0.123 conectado!
26/07/2018 11:26:29 - INFO - Aguardando clientes ...
26/07/2018 11:26:31 - INFO - Cliente 192.168.0.123 conectado!
26/07/2018 11:26:31 - INFO - Aguardando clientes ...
26/07/2018 11:26:31 - INFO - Cliente 192.168.0.123 conectado!
26/07/2018 11:26:31 - INFO - Aguardando clientes ...
26/07/2018 11:26:31 - INFO - Cliente 192.168.0.123 conectado!
26/07/2018 11:26:31 - INFO - Aguardando clientes ...
26/07/2018 11:27:45 - INFO - Porta 4444 aberta ...
26/07/2018 11:27:45 - INFO - Aguardando clientes ...
26/07/2018 11:27:48 - INFO - Cliente 192.168.0.123 conectado!
26/07/2018 11:27:48 - INFO - Aguardando clientes ...
26/07/2018 11:27:48 - INFO - Cliente 192.168.0.123 conectado!
26/07/2018 11:27:48 - INFO - Aguardando clientes ...
26/07/2018 11:27:48 - INFO - Cliente 192.168.0.123 conectado!
26/07/2018 11:27:48 - INFO - Aguardando clientes ...
26/07/2018 11:27:53 - INFO - Cliente 192.168.0.123 conectado!
26/07/2018 11:27:53 - INFO - Aguardando clientes ...
26/07/2018 11:30:34 - INFO - Porta 4444 aberta ...
26/07/2018 11:30:34 - INFO - Aguardando clientes ...
26/07/2018 11:30:36 - INFO - Cliente 192.168.0.123 conectado!
26/07/2018 11:30:36 - INFO - Aguardando clientes ...
26/07/2018 11:30:36 - INFO - Cliente 192.168.0.123 conectado!
26/07/2018 11:30:36 - INFO - Aguardando clientes ...
26/07/2018 11:30:36 - INFO - Cliente 192.168.0.123 conectado!
26/07/2018 11:30:36 - INFO - Aguardando clientes ...
26/07/2018 20:28:14 - INFO - Porta 4444 aberta ...
26/07/2018 20:28:14 - INFO - Aguardando clientes ...
26/07/2018 20:28:17 - INFO - Cliente 0:0:0:0:0:0:0:1 conectado!
26/07/2018 20:28:17 - INFO - Aguardando clientes ...
26/07/2018 20:28:17 - INFO - Cliente 0:0:0:0:0:0:0:1 conectado!
26/07/2018 20:28:17 - INFO - Aguardando clientes ...
26/07/2018 20:30:03 - INFO - Porta 4444 aberta ...
26/07/2018 20:30:03 - INFO - Aguardando clientes ...
26/07/2018 20:30:06 - INFO - Cliente 0:0:0:0:0:0:0:1 conectado!
26/07/2018 20:30:06 - INFO - Aguardando clientes ...
26/07/2018 20:30:06 - INFO - Cliente 0:0:0:0:0:0:0:1 conectado!
26/07/2018 20:30:06 - INFO - Aguardando clientes ...
26/07/2018 20:36:14 - INFO - Porta 4444 aberta ...
26/07/2018 20:36:14 - INFO - Aguardando clientes ...
26/07/2018 20:36:14 - INFO - Cliente 0:0:0:0:0:0:0:1 conectado!
26/07/2018 20:36:14 - INFO - Aguardando clientes ...
26/07/2018 20:36:14 - INFO - Cliente 127.0.0.1 conectado!
26/07/2018 20:36:14 - INFO - Aguardando clientes ...
26/07/2018 20:36:16 - INFO - Cliente 0:0:0:0:0:0:0:1 conectado!
26/07/2018 20:36:16 - INFO - Aguardando clientes ...
26/07/2018 20:36:56 - INFO - Porta 4444 aberta ...
26/07/2018 20:36:56 - INFO - Aguardando clientes ...
26/07/2018 20:36:56 - INFO - Cliente 127.0.0.1 conectado!
26/07/2018 20:36:56 - INFO - Aguardando clientes ...
26/07/2018 20:36:56 - INFO - Cliente 127.0.0.1 conectado!
26/07/2018 20:36:56 - INFO - Aguardando clientes ...
26/07/2018 20:36:58 - INFO - Cliente 0:0:0:0:0:0:0:1 conectado!
26/07/2018 20:36:58 - INFO - Aguardando clientes ...
26/07/2018 20:37:50 - INFO - Porta 4444 aberta ...
26/07/2018 20:37:50 - INFO - Aguardando clientes ...
26/07/2018 20:37:50 - INFO - Cliente 127.0.0.1 conectado!
26/07/2018 20:37:50 - INFO - Aguardando clientes ...
26/07/2018 20:37:50 - INFO - Cliente 127.0.0.1 conectado!
26/07/2018 20:37:50 - INFO - Aguardando clientes ...
26/07/2018 20:55:06 - INFO - Porta 4444 aberta ...
26/07/2018 20:55:06 - INFO - Aguardando clientes ...
26/07/2018 20:55:10 - INFO - Cliente 0:0:0:0:0:0:0:1 conectado!
26/07/2018 20:55:10 - INFO - Aguardando clientes ...
26/07/2018 20:55:10 - INFO - Cliente 0:0:0:0:0:0:0:1 conectado!
26/07/2018 20:55:10 - INFO - Aguardando clientes ...
26/07/2018 20:55:50 - INFO - Porta 4444 aberta ...
26/07/2018 20:55:50 - INFO - Aguardando clientes ...
26/07/2018 20:55:50 - INFO - Cliente 0:0:0:0:0:0:0:1 conectado!
26/07/2018 20:55:50 - INFO - Aguardando clientes ...
26/07/2018 20:55:50 - INFO - Cliente 127.0.0.1 conectado!
26/07/2018 20:55:50 - INFO - Aguardando clientes ...
Servidor.txt - 27/07/2018 09:59:04 - INFO - Porta 4444 aberta ...
Servidor.txt - 27/07/2018 09:59:04 - INFO - Aguardando clientes ...
Servidor.txt - 27/07/2018 09:59:16 - INFO - Cliente 0:0:0:0:0:0:0:1 conectado!
Servidor.txt - 27/07/2018 09:59:16 - INFO - Aguardando clientes ...
Servidor.txt - 27/07/2018 09:59:16 - INFO - Cliente 0:0:0:0:0:0:0:1 conectado!
Servidor.txt - 27/07/2018 09:59:16 - INFO - Aguardando clientes ...
Servidor.txt - 27/07/2018 09:59:16 - INFO - Cliente 0:0:0:0:0:0:0:1 conectado!
Servidor.txt - 27/07/2018 09:59:16 - INFO - Aguardando clientes ...
Servidor.txt - 27/07/2018 09:59:16 - INFO - Cliente 0:0:0:0:0:0:0:1 conectado!
Servidor.txt - 27/07/2018 09:59:16 - INFO - Aguardando clientes ...
Servidor.txt - 27/07/2018 09:59:51 - INFO - Porta 4444 aberta ...
Servidor.txt - 27/07/2018 09:59:51 - INFO - Aguardando clientes ...
Servidor.txt - 27/07/2018 09:59:51 - INFO - Cliente 0:0:0:0:0:0:0:1 conectado!
Servidor.txt - 27/07/2018 09:59:51 - INFO - Aguardando clientes ...
Servidor.txt - 27/07/2018 09:59:51 - INFO - Cliente 0:0:0:0:0:0:0:1 conectado!
Servidor.txt - 27/07/2018 09:59:51 - INFO - Aguardando clientes ...
Servidor.txt - 27/07/2018 09:59:51 - INFO - Cliente 0:0:0:0:0:0:0:1 conectado!
Servidor.txt - 27/07/2018 09:59:51 - INFO - Aguardando clientes ...
Servidor.txt - 27/07/2018 10:03:40 - INFO - Porta 4444 aberta ...
Servidor.txt - 27/07/2018 10:03:40 - INFO - Aguardando clientes ...
Servidor.txt - 27/07/2018 10:03:42 - INFO - Cliente 0:0:0:0:0:0:0:1 conectado!
Servidor.txt - 27/07/2018 10:03:42 - INFO - Aguardando clientes ...
Servidor.txt - 27/07/2018 10:04:16 - INFO - Porta 4444 aberta ...
Servidor.txt - 27/07/2018 10:04:16 - INFO - Aguardando clientes ...
Servidor.txt - 27/07/2018 10:04:17 - INFO - Porta 4444 aberta ...
Servidor.txt - 27/07/2018 10:04:17 - INFO - Aguardando clientes ...
Servidor.txt - 27/07/2018 10:04:21 - INFO - Cliente 0:0:0:0:0:0:0:1 conectado!
Servidor.txt - 27/07/2018 10:04:21 - INFO - Aguardando clientes ...
Servidor.txt - 27/07/2018 10:04:23 - INFO - Cliente 0:0:0:0:0:0:0:1 conectado!
Servidor.txt - 27/07/2018 10:04:23 - INFO - Aguardando clientes ...
Servidor.txt - 27/07/2018 10:04:24 - INFO - Cliente 0:0:0:0:0:0:0:1 conectado!
Servidor.txt - 27/07/2018 10:04:24 - INFO - Aguardando clientes ...
Servidor.txt - 27/07/2018 10:04:26 - INFO - Cliente 0:0:0:0:0:0:0:1 conectado!
Servidor.txt - 27/07/2018 10:04:26 - INFO - Aguardando clientes ...
Servidor.txt - 27/07/2018 10:04:30 - INFO - Cliente 0:0:0:0:0:0:0:1 conectado!
Servidor.txt - 27/07/2018 10:04:30 - INFO - Aguardando clientes ...
Servidor.txt - 27/07/2018 10:04:30 - INFO - Cliente 0:0:0:0:0:0:0:1 conectado!
Servidor.txt - 27/07/2018 10:04:30 - INFO - Aguardando clientes ...
Servidor.txt - 27/07/2018 10:12:40 - INFO - Porta 4444 aberta ...
Servidor.txt - 27/07/2018 10:12:40 - INFO - Aguardando clientes ...
Servidor.txt - 27/07/2018 10:12:43 - INFO - Cliente 0:0:0:0:0:0:0:1 conectado!
Servidor.txt - 27/07/2018 10:12:43 - INFO - Aguardando clientes ...
Servidor.txt - 27/07/2018 10:12:43 - INFO - Cliente 0:0:0:0:0:0:0:1 conectado!
Servidor.txt - 27/07/2018 10:12:43 - INFO - Aguardando clientes ...
Servidor.txt - 27/07/2018 10:16:00 - INFO - Cliente 0:0:0:0:0:0:0:1 conectado!
Servidor.txt - 27/07/2018 10:16:00 - INFO - Aguardando clientes ...
Servidor.txt - 27/07/2018 10:16:00 - INFO - Cliente 0:0:0:0:0:0:0:1 conectado!
Servidor.txt - 27/07/2018 10:16:00 - INFO - Aguardando clientes ...
Servidor.txt - 27/07/2018 10:16:02 - INFO - Cliente 0:0:0:0:0:0:0:1 conectado!
Servidor.txt - 27/07/2018 10:16:02 - INFO - Aguardando clientes ...
Servidor.txt - 27/07/2018 10:16:02 - INFO - Cliente 0:0:0:0:0:0:0:1 conectado!
Servidor.txt - 27/07/2018 10:16:02 - INFO - Aguardando clientes ...
Servidor.txt - 27/07/2018 10:16:02 - INFO - Cliente 0:0:0:0:0:0:0:1 conectado!
Servidor.txt - 27/07/2018 10:16:02 - INFO - Aguardando clientes ...
Servidor.txt - 27/07/2018 10:16:03 - INFO - Cliente 0:0:0:0:0:0:0:1 conectado!
Servidor.txt - 27/07/2018 10:16:03 - INFO - Aguardando clientes ...
Servidor.txt - 27/07/2018 10:16:03 - INFO - Cliente 0:0:0:0:0:0:0:1 conectado!
Servidor.txt - 27/07/2018 10:16:03 - INFO - Aguardando clientes ...
Servidor.txt - 27/07/2018 10:16:14 - INFO - Cliente 0:0:0:0:0:0:0:1 conectado!
Servidor.txt - 27/07/2018 10:16:14 - INFO - Aguardando clientes ...
Servidor.txt - 27/07/2018 10:16:20 - INFO - Cliente 0:0:0:0:0:0:0:1 conectado!
Servidor.txt - 27/07/2018 10:16:20 - INFO - Aguardando clientes ...
Servidor.txt - 27/07/2018 10:16:21 - INFO - Cliente 0:0:0:0:0:0:0:1 conectado!
Servidor.txt - 27/07/2018 10:16:21 - INFO - Aguardando clientes ...
Servidor.txt - 27/07/2018 10:16:22 - INFO - Cliente 0:0:0:0:0:0:0:1 conectado!
Servidor.txt - 27/07/2018 10:16:22 - INFO - Aguardando clientes ...
Servidor.txt - 27/07/2018 10:16:22 - INFO - Cliente 0:0:0:0:0:0:0:1 conectado!
Servidor.txt - 27/07/2018 10:16:22 - INFO - Aguardando clientes ...
Servidor.txt - 27/07/2018 10:16:22 - INFO - Cliente 0:0:0:0:0:0:0:1 conectado!
Servidor.txt - 27/07/2018 10:16:22 - INFO - Aguardando clientes ...
Servidor.txt - 27/07/2018 10:16:22 - INFO - Cliente 0:0:0:0:0:0:0:1 conectado!
Servidor.txt - 27/07/2018 10:16:22 - INFO - Aguardando clientes ...
Servidor.txt - 27/07/2018 10:16:23 - INFO - Cliente 0:0:0:0:0:0:0:1 conectado!
Servidor.txt - 27/07/2018 10:16:23 - INFO - Aguardando clientes ...
Servidor.txt - 27/07/2018 10:16:23 - INFO - Cliente 0:0:0:0:0:0:0:1 conectado!
Servidor.txt - 27/07/2018 10:16:23 - INFO - Aguardando clientes ...
Servidor.txt - 27/07/2018 10:16:23 - INFO - Cliente 0:0:0:0:0:0:0:1 conectado!
Servidor.txt - 27/07/2018 10:16:23 - INFO - Aguardando clientes ...
Servidor.txt - 27/07/2018 10:16:23 - INFO - Cliente 0:0:0:0:0:0:0:1 conectado!
Servidor.txt - 27/07/2018 10:16:23 - INFO - Aguardando clientes ...
Servidor.txt - 27/07/2018 10:22:44 - INFO - Porta 4444 aberta ...
Servidor.txt - 27/07/2018 10:22:44 - INFO - Aguardando clientes ...
Servidor.txt - 27/07/2018 10:22:45 - INFO - Cliente 0:0:0:0:0:0:0:1 conectado!
Servidor.txt - 27/07/2018 10:22:45 - INFO - Aguardando clientes ...
Servidor.txt - 27/07/2018 10:22:45 - INFO - Cliente 0:0:0:0:0:0:0:1 conectado!
Servidor.txt - 27/07/2018 10:22:45 - INFO - Aguardando clientes ...
Servidor.txt - 27/07/2018 10:22:48 - INFO - Cliente 0:0:0:0:0:0:0:1 conectado!
Servidor.txt - 27/07/2018 10:22:48 - INFO - Aguardando clientes ...
Servidor.txt - 27/07/2018 10:22:49 - INFO - Cliente 0:0:0:0:0:0:0:1 conectado!
Servidor.txt - 27/07/2018 10:22:49 - INFO - Aguardando clientes ...
Servidor.txt - 27/07/2018 10:22:49 - INFO - Cliente 0:0:0:0:0:0:0:1 conectado!
Servidor.txt - 27/07/2018 10:22:49 - INFO - Aguardando clientes ...
Servidor.txt - 27/07/2018 10:22:50 - INFO - Cliente 0:0:0:0:0:0:0:1 conectado!
Servidor.txt - 27/07/2018 10:22:50 - INFO - Aguardando clientes ...
Servidor.txt - 27/07/2018 10:23:06 - INFO - Cliente 0:0:0:0:0:0:0:1 conectado!
Servidor.txt - 27/07/2018 10:23:06 - INFO - Aguardando clientes ...
Servidor.txt - 27/07/2018 10:23:06 - INFO - Cliente 0:0:0:0:0:0:0:1 conectado!
Servidor.txt - 27/07/2018 10:23:06 - INFO - Aguardando clientes ...
Servidor.txt - 27/07/2018 10:23:06 - INFO - Cliente 0:0:0:0:0:0:0:1 conectado!
Servidor.txt - 27/07/2018 10:23:06 - INFO - Aguardando clientes ...
Servidor.txt - 27/07/2018 10:23:07 - INFO - Cliente 0:0:0:0:0:0:0:1 conectado!
Servidor.txt - 27/07/2018 10:23:07 - INFO - Aguardando clientes ...
Servidor.txt - 27/07/2018 10:23:21 - INFO - Cliente 0:0:0:0:0:0:0:1 conectado!
Servidor.txt - 27/07/2018 10:23:21 - INFO - Aguardando clientes ...
Servidor.txt - 27/07/2018 10:23:21 - INFO - Cliente 0:0:0:0:0:0:0:1 conectado!
Servidor.txt - 27/07/2018 10:23:21 - INFO - Aguardando clientes ...
Servidor.txt - 27/07/2018 10:23:22 - INFO - Cliente 0:0:0:0:0:0:0:1 conectado!
Servidor.txt - 27/07/2018 10:23:22 - INFO - Aguardando clientes ...
Servidor.txt - 27/07/2018 10:23:22 - INFO - Cliente 0:0:0:0:0:0:0:1 conectado!
Servidor.txt - 27/07/2018 10:23:22 - INFO - Aguardando clientes ...
Servidor.txt - 27/07/2018 10:23:54 - INFO - Porta 4444 aberta ...
Servidor.txt - 27/07/2018 10:23:54 - INFO - Aguardando clientes ...
Servidor.txt - 27/07/2018 10:23:56 - INFO - Cliente 0:0:0:0:0:0:0:1 conectado!
Servidor.txt - 27/07/2018 10:23:56 - INFO - Aguardando clientes ...
Servidor.txt - 27/07/2018 10:23:56 - INFO - Cliente 0:0:0:0:0:0:0:1 conectado!
Servidor.txt - 27/07/2018 10:23:56 - INFO - Aguardando clientes ...
Servidor.txt - 27/07/2018 10:24:34 - INFO - Porta 4444 aberta ...
Servidor.txt - 27/07/2018 10:24:34 - INFO - Aguardando clientes ...
Servidor.txt - 27/07/2018 10:24:35 - INFO - Cliente 0:0:0:0:0:0:0:1 conectado!
Servidor.txt - 27/07/2018 10:24:35 - INFO - Aguardando clientes ...
Servidor.txt - 27/07/2018 10:24:35 - INFO - Cliente 0:0:0:0:0:0:0:1 conectado!
Servidor.txt - 27/07/2018 10:24:35 - INFO - Aguardando clientes ...
Servidor.txt - 27/07/2018 10:24:37 - INFO - Cliente 0:0:0:0:0:0:0:1 conectado!
Servidor.txt - 27/07/2018 10:24:37 - INFO - Aguardando clientes ...
Servidor.txt - 27/07/2018 10:24:37 - INFO - Cliente 0:0:0:0:0:0:0:1 conectado!
Servidor.txt - 27/07/2018 10:24:37 - INFO - Aguardando clientes ...
Servidor.txt - 27/07/2018 10:24:37 - INFO - Cliente 0:0:0:0:0:0:0:1 conectado!
Servidor.txt - 27/07/2018 10:24:37 - INFO - Aguardando clientes ...
Servidor.txt - 27/07/2018 10:24:38 - INFO - Cliente 0:0:0:0:0:0:0:1 conectado!
Servidor.txt - 27/07/2018 10:24:38 - INFO - Aguardando clientes ...
Servidor.txt - 27/07/2018 10:24:38 - INFO - Cliente 0:0:0:0:0:0:0:1 conectado!
Servidor.txt - 27/07/2018 10:24:38 - INFO - Aguardando clientes ...
Servidor.txt - 27/07/2018 10:25:00 - INFO - Porta 4444 aberta ...
Servidor.txt - 27/07/2018 10:25:00 - INFO - Aguardando clientes ...
Servidor.txt - 27/07/2018 10:25:02 - INFO - Cliente 0:0:0:0:0:0:0:1 conectado!
Servidor.txt - 27/07/2018 10:25:02 - INFO - Aguardando clientes ...
Servidor.txt - 27/07/2018 10:25:43 - INFO - Cliente 0:0:0:0:0:0:0:1 conectado!
Servidor.txt - 27/07/2018 10:25:43 - INFO - Aguardando clientes ...
Servidor.txt - 27/07/2018 10:25:45 - INFO - Cliente 0:0:0:0:0:0:0:1 conectado!
Servidor.txt - 27/07/2018 10:25:45 - INFO - Aguardando clientes ...
Servidor.txt - 27/07/2018 10:25:46 - INFO - Cliente 0:0:0:0:0:0:0:1 conectado!
Servidor.txt - 27/07/2018 10:25:46 - INFO - Aguardando clientes ...
Servidor.txt - 27/07/2018 10:25:46 - INFO - Cliente 0:0:0:0:0:0:0:1 conectado!
Servidor.txt - 27/07/2018 10:25:46 - INFO - Aguardando clientes ...
Servidor.txt - 27/07/2018 10:25:47 - INFO - Cliente 0:0:0:0:0:0:0:1 conectado!
Servidor.txt - 27/07/2018 10:25:47 - INFO - Aguardando clientes ...
Servidor.txt - 27/07/2018 10:25:47 - INFO - Cliente 0:0:0:0:0:0:0:1 conectado!
Servidor.txt - 27/07/2018 10:25:47 - INFO - Aguardando clientes ...
Servidor.txt - 27/07/2018 10:25:47 - INFO - Cliente 0:0:0:0:0:0:0:1 conectado!
Servidor.txt - 27/07/2018 10:25:47 - INFO - Aguardando clientes ...
Servidor.txt - 27/07/2018 10:25:47 - INFO - Cliente 0:0:0:0:0:0:0:1 conectado!
Servidor.txt - 27/07/2018 10:25:47 - INFO - Aguardando clientes ...
Servidor.txt - 27/07/2018 10:25:47 - INFO - Cliente 0:0:0:0:0:0:0:1 conectado!
Servidor.txt - 27/07/2018 10:25:47 - INFO - Aguardando clientes ...
Servidor.txt - 27/07/2018 10:25:48 - INFO - Cliente 0:0:0:0:0:0:0:1 conectado!
Servidor.txt - 27/07/2018 10:25:48 - INFO - Aguardando clientes ...
Servidor.txt - 27/07/2018 10:25:48 - INFO - Cliente 0:0:0:0:0:0:0:1 conectado!
Servidor.txt - 27/07/2018 10:25:48 - INFO - Aguardando clientes ...
Servidor.txt - 27/07/2018 10:25:48 - INFO - Cliente 0:0:0:0:0:0:0:1 conectado!
Servidor.txt - 27/07/2018 10:25:48 - INFO - Aguardando clientes ...
Servidor.txt - 27/07/2018 10:25:48 - INFO - Cliente 0:0:0:0:0:0:0:1 conectado!
Servidor.txt - 27/07/2018 10:25:48 - INFO - Aguardando clientes ...
Servidor.txt - 27/07/2018 10:25:49 - INFO - Cliente 0:0:0:0:0:0:0:1 conectado!
Servidor.txt - 27/07/2018 10:25:49 - INFO - Aguardando clientes ...
Servidor.txt - 27/07/2018 10:25:49 - INFO - Cliente 0:0:0:0:0:0:0:1 conectado!
Servidor.txt - 27/07/2018 10:25:49 - INFO - Aguardando clientes ...
Servidor.txt - 27/07/2018 10:25:49 - INFO - Cliente 0:0:0:0:0:0:0:1 conectado!
Servidor.txt - 27/07/2018 10:25:49 - INFO - Aguardando clientes ...
Servidor.txt - 27/07/2018 10:25:49 - INFO - Cliente 0:0:0:0:0:0:0:1 conectado!
Servidor.txt - 27/07/2018 10:25:49 - INFO - Aguardando clientes ...
Servidor.txt - 27/07/2018 10:25:50 - INFO - Cliente 0:0:0:0:0:0:0:1 conectado!
Servidor.txt - 27/07/2018 10:25:50 - INFO - Aguardando clientes ...
Servidor.txt - 27/07/2018 10:25:50 - INFO - Cliente 0:0:0:0:0:0:0:1 conectado!
Servidor.txt - 27/07/2018 10:25:50 - INFO - Aguardando clientes ...
Servidor.txt - 27/07/2018 10:25:50 - INFO - Cliente 0:0:0:0:0:0:0:1 conectado!
Servidor.txt - 27/07/2018 10:25:50 - INFO - Aguardando clientes ...
Servidor.txt - 27/07/2018 10:25:50 - INFO - Cliente 0:0:0:0:0:0:0:1 conectado!
Servidor.txt - 27/07/2018 10:25:50 - INFO - Aguardando clientes ...
Servidor.txt - 27/07/2018 10:25:51 - INFO - Cliente 0:0:0:0:0:0:0:1 conectado!
Servidor.txt - 27/07/2018 10:25:51 - INFO - Aguardando clientes ...
Servidor.txt - 27/07/2018 10:25:51 - INFO - Cliente 0:0:0:0:0:0:0:1 conectado!
Servidor.txt - 27/07/2018 10:25:51 - INFO - Aguardando clientes ...
Servidor.txt - 27/07/2018 10:29:57 - INFO - Porta 4444 aberta ...
Servidor.txt - 27/07/2018 10:29:57 - INFO - Aguardando clientes ...
Servidor.txt - 27/07/2018 10:30:00 - INFO - Cliente 0:0:0:0:0:0:0:1 conectado!
Servidor.txt - 27/07/2018 10:30:00 - INFO - Aguardando clientes ...
Servidor.txt - 27/07/2018 10:30:00 - INFO - Cliente 0:0:0:0:0:0:0:1 conectado!
Servidor.txt - 27/07/2018 10:30:00 - INFO - Aguardando clientes ...
Servidor.txt - 27/07/2018 10:30:50 - INFO - Porta 4444 aberta ...
Servidor.txt - 27/07/2018 10:30:50 - INFO - Aguardando clientes ...
Servidor.txt - 27/07/2018 10:30:51 - INFO - Cliente 0:0:0:0:0:0:0:1 conectado!
Servidor.txt - 27/07/2018 10:30:51 - INFO - Aguardando clientes ...
Servidor.txt - 27/07/2018 10:30:51 - INFO - Cliente 0:0:0:0:0:0:0:1 conectado!
Servidor.txt - 27/07/2018 10:30:51 - INFO - Aguardando clientes ...
Servidor.txt - 27/07/2018 10:32:56 - INFO - Porta 4444 aberta ...
Servidor.txt - 27/07/2018 10:32:56 - INFO - Aguardando clientes ...
Servidor.txt - 27/07/2018 10:32:58 - INFO - Cliente 0:0:0:0:0:0:0:1 conectado!
Servidor.txt - 27/07/2018 10:32:58 - INFO - Aguardando clientes ...
Servidor.txt - 27/07/2018 10:32:58 - INFO - Cliente 0:0:0:0:0:0:0:1 conectado!
Servidor.txt - 27/07/2018 10:32:58 - INFO - Aguardando clientes ...
Servidor.txt - 27/07/2018 10:33:02 - INFO - Porta 4444 aberta ...
Servidor.txt - 27/07/2018 10:33:02 - INFO - Aguardando clientes ...
Servidor.txt - 27/07/2018 10:33:04 - INFO - Cliente 0:0:0:0:0:0:0:1 conectado!
Servidor.txt - 27/07/2018 10:33:04 - INFO - Aguardando clientes ...
Servidor.txt - 27/07/2018 10:33:04 - INFO - Cliente 0:0:0:0:0:0:0:1 conectado!
Servidor.txt - 27/07/2018 10:33:04 - INFO - Aguardando clientes ...
Servidor.txt - 27/07/2018 10:33:04 - INFO - Cliente 0:0:0:0:0:0:0:1 conectado!
Servidor.txt - 27/07/2018 10:33:04 - INFO - Aguardando clientes ...
Servidor.txt - 27/07/2018 10:33:04 - INFO - Cliente 0:0:0:0:0:0:0:1 conectado!
Servidor.txt - 27/07/2018 10:33:04 - INFO - Aguardando clientes ...
Servidor.txt - 27/07/2018 10:33:23 - INFO - Cliente 0:0:0:0:0:0:0:1 conectado!
Servidor.txt - 27/07/2018 10:33:23 - INFO - Aguardando clientes ...
Servidor.txt - 27/07/2018 10:33:23 - INFO - Cliente 0:0:0:0:0:0:0:1 conectado!
Servidor.txt - 27/07/2018 10:33:23 - INFO - Aguardando clientes ...
Servidor.txt - 27/07/2018 10:33:49 - INFO - Porta 4444 aberta ...
Servidor.txt - 27/07/2018 10:33:49 - INFO - Aguardando clientes ...
Servidor.txt - 27/07/2018 10:33:51 - INFO - Cliente 0:0:0:0:0:0:0:1 conectado!
Servidor.txt - 27/07/2018 10:33:51 - INFO - Aguardando clientes ...
Servidor.txt - 27/07/2018 10:33:51 - INFO - Cliente 0:0:0:0:0:0:0:1 conectado!
Servidor.txt - 27/07/2018 10:33:51 - INFO - Aguardando clientes ...
Servidor.txt - 27/07/2018 10:33:51 - INFO - Cliente 0:0:0:0:0:0:0:1 conectado!
Servidor.txt - 27/07/2018 10:33:51 - INFO - Aguardando clientes ...
Servidor.txt - 27/07/2018 10:33:58 - INFO - Porta 4444 aberta ...
Servidor.txt - 27/07/2018 10:33:58 - INFO - Aguardando clientes ...
Servidor.txt - 27/07/2018 10:34:00 - INFO - Cliente 0:0:0:0:0:0:0:1 conectado!
Servidor.txt - 27/07/2018 10:34:00 - INFO - Aguardando clientes ...
Servidor.txt - 27/07/2018 10:34:00 - INFO - Cliente 0:0:0:0:0:0:0:1 conectado!
Servidor.txt - 27/07/2018 10:34:00 - INFO - Aguardando clientes ...
Servidor.txt - 27/07/2018 10:34:00 - INFO - Cliente 0:0:0:0:0:0:0:1 conectado!
Servidor.txt - 27/07/2018 10:34:00 - INFO - Aguardando clientes ...
Servidor.txt - 27/07/2018 10:34:35 - INFO - Porta 4444 aberta ...
Servidor.txt - 27/07/2018 10:34:35 - INFO - Aguardando clientes ...
Servidor.txt - 27/07/2018 10:34:37 - INFO - Cliente 0:0:0:0:0:0:0:1 conectado!
Servidor.txt - 27/07/2018 10:34:37 - INFO - Aguardando clientes ...
Servidor.txt - 27/07/2018 10:34:37 - INFO - Cliente 0:0:0:0:0:0:0:1 conectado!
Servidor.txt - 27/07/2018 10:34:37 - INFO - Aguardando clientes ...
Servidor.txt - 27/07/2018 10:34:37 - INFO - Cliente 0:0:0:0:0:0:0:1 conectado!
Servidor.txt - 27/07/2018 10:34:37 - INFO - Aguardando clientes ...
Servidor.txt - 27/07/2018 10:35:21 - INFO - Porta 4444 aberta ...
Servidor.txt - 27/07/2018 10:35:21 - INFO - Aguardando clientes ...
Servidor.txt - 27/07/2018 10:35:24 - INFO - Cliente 0:0:0:0:0:0:0:1 conectado!
Servidor.txt - 27/07/2018 10:35:24 - INFO - Aguardando clientes ...
Servidor.txt - 27/07/2018 10:35:24 - INFO - Cliente 0:0:0:0:0:0:0:1 conectado!
Servidor.txt - 27/07/2018 10:35:24 - INFO - Aguardando clientes ...
Servidor.txt - 27/07/2018 10:35:24 - INFO - Cliente 0:0:0:0:0:0:0:1 conectado!
Servidor.txt - 27/07/2018 10:35:24 - INFO - Aguardando clientes ...
Servidor.txt - 27/07/2018 10:35:59 - INFO - Cliente 0:0:0:0:0:0:0:1 conectado!
Servidor.txt - 27/07/2018 10:35:59 - INFO - Aguardando clientes ...
Servidor.txt - 27/07/2018 10:36:59 - INFO - Cliente 0:0:0:0:0:0:0:1 conectado!
Servidor.txt - 27/07/2018 10:36:59 - INFO - Aguardando clientes ...
Servidor.txt - 27/07/2018 10:37:24 - INFO - Porta 4444 aberta ...
Servidor.txt - 27/07/2018 10:37:24 - INFO - Aguardando clientes ...
Servidor.txt - 27/07/2018 10:37:25 - INFO - Cliente 0:0:0:0:0:0:0:1 conectado!
Servidor.txt - 27/07/2018 10:37:25 - INFO - Aguardando clientes ...
Servidor.txt - 27/07/2018 10:37:25 - INFO - Cliente 0:0:0:0:0:0:0:1 conectado!
Servidor.txt - 27/07/2018 10:37:25 - INFO - Aguardando clientes ...
Servidor.txt - 27/07/2018 10:37:39 - INFO - Porta 4444 aberta ...
Servidor.txt - 27/07/2018 10:37:39 - INFO - Aguardando clientes ...
Servidor.txt - 27/07/2018 10:37:41 - INFO - Cliente 0:0:0:0:0:0:0:1 conectado!
Servidor.txt - 27/07/2018 10:37:41 - INFO - Aguardando clientes ...
Servidor.txt - 27/07/2018 10:37:42 - INFO - Cliente 0:0:0:0:0:0:0:1 conectado!
Servidor.txt - 27/07/2018 10:37:42 - INFO - Aguardando clientes ...
Servidor.txt - 27/07/2018 10:45:46 - INFO - Porta 4444 aberta ...
Servidor.txt - 27/07/2018 10:45:46 - INFO - Aguardando clientes ...
Servidor.txt - 27/07/2018 10:45:49 - INFO - Cliente 0:0:0:0:0:0:0:1 conectado!
Servidor.txt - 27/07/2018 10:45:49 - INFO - Aguardando clientes ...
Servidor.txt - 27/07/2018 10:45:51 - INFO - Cliente 0:0:0:0:0:0:0:1 conectado!
Servidor.txt - 27/07/2018 10:45:51 - INFO - Aguardando clientes ...
Servidor.txt - 27/07/2018 10:45:55 - INFO - Cliente 0:0:0:0:0:0:0:1 conectado!
Servidor.txt - 27/07/2018 10:45:55 - INFO - Aguardando clientes ...
Servidor.txt - 27/07/2018 10:45:57 - INFO - Cliente 0:0:0:0:0:0:0:1 conectado!
Servidor.txt - 27/07/2018 10:45:57 - INFO - Aguardando clientes ...
Servidor.txt - 27/07/2018 10:45:59 - INFO - Cliente 0:0:0:0:0:0:0:1 conectado!
Servidor.txt - 27/07/2018 10:45:59 - INFO - Aguardando clientes ...
Servidor.txt - 27/07/2018 10:45:59 - INFO - Cliente 0:0:0:0:0:0:0:1 conectado!
Servidor.txt - 27/07/2018 10:45:59 - INFO - Aguardando clientes ...
Servidor.txt - 27/07/2018 10:46:00 - INFO - Cliente 0:0:0:0:0:0:0:1 conectado!
Servidor.txt - 27/07/2018 10:46:00 - INFO - Aguardando clientes ...
Servidor.txt - 27/07/2018 10:46:00 - INFO - Cliente 0:0:0:0:0:0:0:1 conectado!
Servidor.txt - 27/07/2018 10:46:00 - INFO - Aguardando clientes ...
Servidor.txt - 27/07/2018 10:46:00 - INFO - Cliente 0:0:0:0:0:0:0:1 conectado!
Servidor.txt - 27/07/2018 10:46:00 - INFO - Aguardando clientes ...
Servidor.txt - 27/07/2018 10:46:00 - INFO - Cliente 0:0:0:0:0:0:0:1 conectado!
Servidor.txt - 27/07/2018 10:46:00 - INFO - Aguardando clientes ...
Servidor.txt - 27/07/2018 10:46:00 - INFO - Cliente 0:0:0:0:0:0:0:1 conectado!
Servidor.txt - 27/07/2018 10:46:00 - INFO - Aguardando clientes ...
Servidor.txt - 27/07/2018 10:46:01 - INFO - Cliente 0:0:0:0:0:0:0:1 conectado!
Servidor.txt - 27/07/2018 10:46:01 - INFO - Aguardando clientes ...
Servidor.txt - 27/07/2018 10:46:01 - INFO - Cliente 0:0:0:0:0:0:0:1 conectado!
Servidor.txt - 27/07/2018 10:46:01 - INFO - Aguardando clientes ...
Servidor.txt - 27/07/2018 10:46:01 - INFO - Cliente 0:0:0:0:0:0:0:1 conectado!
Servidor.txt - 27/07/2018 10:46:01 - INFO - Aguardando clientes ...
Servidor.txt - 27/07/2018 10:46:01 - INFO - Cliente 0:0:0:0:0:0:0:1 conectado!
Servidor.txt - 27/07/2018 10:46:01 - INFO - Aguardando clientes ...
Servidor.txt - 27/07/2018 10:46:01 - INFO - Cliente 0:0:0:0:0:0:0:1 conectado!
Servidor.txt - 27/07/2018 10:46:01 - INFO - Aguardando clientes ...
Servidor.txt - 27/07/2018 10:46:21 - INFO - Porta 4444 aberta ...
Servidor.txt - 27/07/2018 10:46:21 - INFO - Aguardando clientes ...
Servidor.txt - 27/07/2018 10:46:25 - INFO - Cliente 0:0:0:0:0:0:0:1 conectado!
Servidor.txt - 27/07/2018 10:46:25 - INFO - Aguardando clientes ...
Servidor.txt - 27/07/2018 10:47:16 - INFO - Porta 4444 aberta ...
Servidor.txt - 27/07/2018 10:47:16 - INFO - Aguardando clientes ...
Servidor.txt - 27/07/2018 10:47:19 - INFO - Cliente 0:0:0:0:0:0:0:1 conectado!
Servidor.txt - 27/07/2018 10:47:19 - INFO - Aguardando clientes ...
Servidor.txt - 27/07/2018 10:47:48 - INFO - Porta 4444 aberta ...
Servidor.txt - 27/07/2018 10:47:48 - INFO - Aguardando clientes ...
Servidor.txt - 27/07/2018 10:47:50 - INFO - Cliente 0:0:0:0:0:0:0:1 conectado!
Servidor.txt - 27/07/2018 10:47:50 - INFO - Aguardando clientes ...
Servidor.txt - 27/07/2018 10:48:09 - INFO - Cliente 0:0:0:0:0:0:0:1 conectado!
Servidor.txt - 27/07/2018 10:48:09 - INFO - Aguardando clientes ...
Servidor.txt - 27/07/2018 10:48:28 - INFO - Cliente 0:0:0:0:0:0:0:1 conectado!
Servidor.txt - 27/07/2018 10:48:28 - INFO - Aguardando clientes ...
Servidor.txt - 27/07/2018 10:52:21 - INFO - Porta 4444 aberta ...
Servidor.txt - 27/07/2018 10:52:21 - INFO - Aguardando clientes ...
Servidor.txt - 27/07/2018 10:52:22 - INFO - Cliente 0:0:0:0:0:0:0:1 conectado!
Servidor.txt - 27/07/2018 10:52:22 - INFO - Aguardando clientes ...
Servidor.txt - 27/07/2018 10:52:25 - INFO - Cliente 0:0:0:0:0:0:0:1 conectado!
Servidor.txt - 27/07/2018 10:52:25 - INFO - Aguardando clientes ...
Servidor.txt - 27/07/2018 10:52:33 - INFO - Cliente 0:0:0:0:0:0:0:1 conectado!
Servidor.txt - 27/07/2018 10:52:33 - INFO - Aguardando clientes ...
27/07/2018 19:14:37 - INFO - Porta 4444 aberta ...
27/07/2018 19:14:37 - INFO - Aguardando clientes ...
27/07/2018 19:14:39 - INFO - Cliente 0:0:0:0:0:0:0:1 conectado!
27/07/2018 19:14:39 - INFO - Aguardando clientes ...
27/07/2018 19:14:39 - INFO - Cliente 0:0:0:0:0:0:0:1 conectado!
27/07/2018 19:14:39 - INFO - Aguardando clientes ...
27/07/2018 19:15:53 - INFO - Porta 4444 aberta ...
27/07/2018 19:15:53 - INFO - Aguardando clientes ...
27/07/2018 19:16:05 - INFO - Cliente 0:0:0:0:0:0:0:1 conectado!
27/07/2018 19:16:05 - INFO - Aguardando clientes ...
27/07/2018 19:16:05 - INFO - Cliente 0:0:0:0:0:0:0:1 conectado!
27/07/2018 19:16:05 - INFO - Aguardando clientes ...
27/07/2018 19:17:21 - INFO - Porta 4444 aberta ...
27/07/2018 19:17:21 - INFO - Aguardando clientes ...
27/07/2018 19:17:21 - INFO - Cliente 0:0:0:0:0:0:0:1 conectado!
27/07/2018 19:17:21 - INFO - Aguardando clientes ...
27/07/2018 19:17:21 - INFO - Cliente 127.0.0.1 conectado!
27/07/2018 19:17:21 - INFO - Aguardando clientes ...
27/07/2018 19:17:26 - INFO - Cliente 0:0:0:0:0:0:0:1 conectado!
27/07/2018 19:17:26 - INFO - Aguardando clientes ...
27/07/2018 19:17:57 - INFO - Porta 4444 aberta ...
27/07/2018 19:17:57 - INFO - Aguardando clientes ...
27/07/2018 19:17:57 - INFO - Cliente 0:0:0:0:0:0:0:1 conectado!
27/07/2018 19:17:57 - INFO - Aguardando clientes ...
27/07/2018 19:17:57 - INFO - Cliente 127.0.0.1 conectado!
27/07/2018 19:17:57 - INFO - Aguardando clientes ...
27/07/2018 19:18:15 - INFO - Cliente 0:0:0:0:0:0:0:1 conectado!
27/07/2018 19:18:15 - INFO - Aguardando clientes ...
27/07/2018 19:18:16 - INFO - Cliente 0:0:0:0:0:0:0:1 conectado!
27/07/2018 19:18:16 - INFO - Aguardando clientes ...
27/07/2018 19:18:21 - INFO - Cliente 0:0:0:0:0:0:0:1 conectado!
27/07/2018 19:18:21 - INFO - Aguardando clientes ...
27/07/2018 19:18:21 - INFO - Cliente 0:0:0:0:0:0:0:1 conectado!
27/07/2018 19:18:21 - INFO - Aguardando clientes ...
27/07/2018 19:18:21 - INFO - Cliente 0:0:0:0:0:0:0:1 conectado!
27/07/2018 19:18:21 - INFO - Aguardando clientes ...
27/07/2018 19:18:21 - INFO - Cliente 0:0:0:0:0:0:0:1 conectado!
27/07/2018 19:18:21 - INFO - Aguardando clientes ...
27/07/2018 19:18:33 - INFO - Cliente 0:0:0:0:0:0:0:1 conectado!
27/07/2018 19:18:33 - INFO - Aguardando clientes ...
27/07/2018 19:18:33 - INFO - Cliente 0:0:0:0:0:0:0:1 conectado!
27/07/2018 19:18:33 - INFO - Aguardando clientes ...
27/07/2018 19:18:52 - INFO - Cliente 0:0:0:0:0:0:0:1 conectado!
27/07/2018 19:18:52 - INFO - Aguardando clientes ...
27/07/2018 19:18:52 - INFO - Cliente 0:0:0:0:0:0:0:1 conectado!
27/07/2018 19:18:52 - INFO - Aguardando clientes ...
27/07/2018 19:18:55 - INFO - Cliente 0:0:0:0:0:0:0:1 conectado!
27/07/2018 19:18:55 - INFO - Aguardando clientes ...
27/07/2018 19:19:57 - INFO - Porta 4444 aberta ...
27/07/2018 19:19:57 - INFO - Aguardando clientes ...
27/07/2018 19:20:00 - INFO - Cliente 0:0:0:0:0:0:0:1 conectado!
27/07/2018 19:20:00 - INFO - Aguardando clientes ...
27/07/2018 19:20:00 - INFO - Cliente 0:0:0:0:0:0:0:1 conectado!
27/07/2018 19:20:00 - INFO - Aguardando clientes ...
27/07/2018 19:20:00 - INFO - Cliente 0:0:0:0:0:0:0:1 conectado!
27/07/2018 19:20:00 - INFO - Aguardando clientes ...
27/07/2018 19:29:42 - INFO - Porta 4444 aberta ...
27/07/2018 19:29:43 - INFO - Aguardando clientes ...
27/07/2018 19:29:46 - INFO - Cliente 0:0:0:0:0:0:0:1 conectado!
27/07/2018 19:29:46 - INFO - Aguardando clientes ...
27/07/2018 19:29:46 - INFO - Cliente 0:0:0:0:0:0:0:1 conectado!
27/07/2018 19:29:46 - INFO - Aguardando clientes ...
27/07/2018 19:29:46 - INFO - Cliente 0:0:0:0:0:0:0:1 conectado!
27/07/2018 19:29:46 - INFO - Aguardando clientes ...
27/07/2018 19:29:58 - INFO - Cliente 0:0:0:0:0:0:0:1 conectado!
27/07/2018 19:29:58 - INFO - Aguardando clientes ...
27/07/2018 20:12:32 - INFO - Cliente 0:0:0:0:0:0:0:1 conectado!
27/07/2018 20:12:32 - INFO - Aguardando clientes ...
27/07/2018 20:12:54 - INFO - Cliente 0:0:0:0:0:0:0:1 conectado!
27/07/2018 20:12:54 - INFO - Aguardando clientes ...
27/07/2018 20:13:53 - INFO - Cliente 0:0:0:0:0:0:0:1 conectado!
27/07/2018 20:13:53 - INFO - Aguardando clientes ...
27/07/2018 20:14:07 - INFO - Porta 4444 aberta ...
27/07/2018 20:14:07 - INFO - Aguardando clientes ...
27/07/2018 20:14:07 - INFO - Cliente 127.0.0.1 conectado!
27/07/2018 20:14:07 - INFO - Aguardando clientes ...
27/07/2018 20:14:07 - INFO - Cliente 127.0.0.1 conectado!
27/07/2018 20:14:07 - INFO - Aguardando clientes ...
27/07/2018 20:14:42 - INFO - Cliente 0:0:0:0:0:0:0:1 conectado!
27/07/2018 20:14:42 - INFO - Aguardando clientes ...
27/07/2018 20:14:58 - INFO - Cliente 0:0:0:0:0:0:0:1 conectado!
27/07/2018 20:14:58 - INFO - Aguardando clientes ...
27/07/2018 20:19:54 - INFO - Porta 4444 aberta ...
27/07/2018 20:19:54 - INFO - Aguardando clientes ...
27/07/2018 20:19:56 - INFO - Cliente 0:0:0:0:0:0:0:1 conectado!
27/07/2018 20:19:56 - INFO - Aguardando clientes ...
27/07/2018 20:20:03 - INFO - Cliente 0:0:0:0:0:0:0:1 conectado!
27/07/2018 20:20:03 - INFO - Aguardando clientes ...
27/07/2018 20:20:11 - INFO - Cliente 0:0:0:0:0:0:0:1 conectado!
27/07/2018 20:20:11 - INFO - Aguardando clientes ...
27/07/2018 20:21:16 - INFO - Porta 4444 aberta ...
27/07/2018 20:21:16 - INFO - Aguardando clientes ...
27/07/2018 20:21:16 - INFO - Cliente 0:0:0:0:0:0:0:1 conectado!
27/07/2018 20:21:16 - INFO - Aguardando clientes ...
27/07/2018 20:21:16 - INFO - Cliente 127.0.0.1 conectado!
27/07/2018 20:21:16 - INFO - Aguardando clientes ...
27/07/2018 20:21:30 - INFO - Cliente 0:0:0:0:0:0:0:1 conectado!
27/07/2018 20:21:30 - INFO - Aguardando clientes ...
27/07/2018 20:21:34 - INFO - Cliente 0:0:0:0:0:0:0:1 conectado!
27/07/2018 20:21:34 - INFO - Aguardando clientes ...
27/07/2018 20:21:34 - INFO - Cliente 0:0:0:0:0:0:0:1 conectado!
27/07/2018 20:21:34 - INFO - Aguardando clientes ...
27/07/2018 20:22:43 - INFO - Porta 4444 aberta ...
27/07/2018 20:22:43 - INFO - Aguardando clientes ...
27/07/2018 20:22:47 - INFO - Cliente 0:0:0:0:0:0:0:1 conectado!
27/07/2018 20:22:47 - INFO - Aguardando clientes ...
27/07/2018 20:22:49 - INFO - Cliente 0:0:0:0:0:0:0:1 conectado!
27/07/2018 20:22:49 - INFO - Aguardando clientes ...
27/07/2018 20:22:49 - INFO - Cliente 0:0:0:0:0:0:0:1 conectado!
27/07/2018 20:22:49 - INFO - Aguardando clientes ...
27/07/2018 20:24:50 - INFO - Porta 4444 aberta ...
27/07/2018 20:24:50 - INFO - Aguardando clientes ...
27/07/2018 20:24:52 - INFO - Cliente 0:0:0:0:0:0:0:1 conectado!
27/07/2018 20:24:52 - INFO - Aguardando clientes ...
27/07/2018 20:25:05 - INFO - Cliente 0:0:0:0:0:0:0:1 conectado!
27/07/2018 20:25:05 - INFO - Aguardando clientes ...
27/07/2018 20:26:16 - INFO - Porta 4444 aberta ...
27/07/2018 20:26:16 - INFO - Aguardando clientes ...
27/07/2018 20:26:18 - INFO - Cliente 0:0:0:0:0:0:0:1 conectado!
27/07/2018 20:26:18 - INFO - Aguardando clientes ...
27/07/2018 20:26:18 - INFO - Cliente 0:0:0:0:0:0:0:1 conectado!
27/07/2018 20:26:18 - INFO - Aguardando clientes ...
27/07/2018 20:28:17 - INFO - Porta 4444 aberta ...
27/07/2018 20:28:17 - INFO - Aguardando clientes ...
27/07/2018 20:28:27 - INFO - Cliente 0:0:0:0:0:0:0:1 conectado!
27/07/2018 20:28:27 - INFO - Aguardando clientes ...
27/07/2018 20:28:33 - INFO - Cliente 0:0:0:0:0:0:0:1 conectado!
27/07/2018 20:28:33 - INFO - Aguardando clientes ...
27/07/2018 20:28:33 - INFO - Cliente 0:0:0:0:0:0:0:1 conectado!
27/07/2018 20:28:33 - INFO - Aguardando clientes ...
27/07/2018 20:31:52 - INFO - Porta 4444 aberta ...
27/07/2018 20:31:52 - INFO - Aguardando clientes ...
27/07/2018 20:31:57 - INFO - Cliente 0:0:0:0:0:0:0:1 conectado!
27/07/2018 20:31:57 - INFO - Aguardando clientes ...
27/07/2018 20:32:01 - INFO - Cliente 0:0:0:0:0:0:0:1 conectado!
27/07/2018 20:32:01 - INFO - Aguardando clientes ...
27/07/2018 20:32:01 - INFO - Cliente 0:0:0:0:0:0:0:1 conectado!
27/07/2018 20:32:01 - INFO - Aguardando clientes ...
27/07/2018 20:33:37 - INFO - Porta 4444 aberta ...
27/07/2018 20:33:37 - INFO - Aguardando clientes ...
27/07/2018 20:33:41 - INFO - Cliente 0:0:0:0:0:0:0:1 conectado!
27/07/2018 20:33:41 - INFO - Aguardando clientes ...
27/07/2018 20:33:48 - INFO - Cliente 0:0:0:0:0:0:0:1 conectado!
27/07/2018 20:33:48 - INFO - Aguardando clientes ...
27/07/2018 20:34:12 - INFO - Cliente 0:0:0:0:0:0:0:1 conectado!
27/07/2018 20:34:12 - INFO - Aguardando clientes ...
27/07/2018 20:34:55 - INFO - Porta 4444 aberta ...
27/07/2018 20:34:55 - INFO - Aguardando clientes ...
27/07/2018 20:34:58 - INFO - Cliente 0:0:0:0:0:0:0:1 conectado!
27/07/2018 20:34:58 - INFO - Aguardando clientes ...
27/07/2018 20:35:15 - INFO - Cliente 0:0:0:0:0:0:0:1 conectado!
27/07/2018 20:35:15 - INFO - Aguardando clientes ...
27/07/2018 20:35:33 - INFO - Cliente 0:0:0:0:0:0:0:1 conectado!
27/07/2018 20:35:33 - INFO - Aguardando clientes ...
27/07/2018 20:36:59 - INFO - Porta 4444 aberta ...
27/07/2018 20:36:59 - INFO - Aguardando clientes ...
27/07/2018 20:37:04 - INFO - Cliente 0:0:0:0:0:0:0:1 conectado!
27/07/2018 20:37:04 - INFO - Aguardando clientes ...
27/07/2018 20:37:11 - INFO - Cliente 0:0:0:0:0:0:0:1 conectado!
27/07/2018 20:37:11 - INFO - Aguardando clientes ...
27/07/2018 20:37:46 - INFO - Cliente 0:0:0:0:0:0:0:1 conectado!
27/07/2018 20:37:46 - INFO - Aguardando clientes ...
27/07/2018 20:39:06 - INFO - Porta 4444 aberta ...
27/07/2018 20:39:06 - INFO - Aguardando clientes ...
27/07/2018 20:39:12 - INFO - Cliente 0:0:0:0:0:0:0:1 conectado!
27/07/2018 20:39:12 - INFO - Aguardando clientes ...
27/07/2018 20:39:12 - INFO - Cliente 0:0:0:0:0:0:0:1 conectado!
27/07/2018 20:39:12 - INFO - Aguardando clientes ...
27/07/2018 20:41:11 - INFO - Porta 4444 aberta ...
27/07/2018 20:41:11 - INFO - Aguardando clientes ...
27/07/2018 20:41:14 - INFO - Cliente 0:0:0:0:0:0:0:1 conectado!
27/07/2018 20:41:14 - INFO - Aguardando clientes ...
27/07/2018 20:41:16 - INFO - Cliente 0:0:0:0:0:0:0:1 conectado!
27/07/2018 20:41:16 - INFO - Aguardando clientes ...
27/07/2018 20:43:29 - INFO - Porta 4444 aberta ...
27/07/2018 20:43:29 - INFO - Aguardando clientes ...
27/07/2018 20:43:30 - INFO - Cliente 0:0:0:0:0:0:0:1 conectado!
27/07/2018 20:43:30 - INFO - Aguardando clientes ...
27/07/2018 20:43:31 - INFO - Cliente 0:0:0:0:0:0:0:1 conectado!
27/07/2018 20:43:31 - INFO - Aguardando clientes ...
27/07/2018 20:43:41 - INFO - Cliente 0:0:0:0:0:0:0:1 conectado!
27/07/2018 20:43:41 - INFO - Aguardando clientes ...
27/07/2018 20:43:46 - INFO - Cliente 0:0:0:0:0:0:0:1 conectado!
27/07/2018 20:43:46 - INFO - Aguardando clientes ...
27/07/2018 20:43:58 - INFO - Cliente 0:0:0:0:0:0:0:1 conectado!
27/07/2018 20:43:58 - INFO - Aguardando clientes ...
27/07/2018 20:43:58 - INFO - Cliente 0:0:0:0:0:0:0:1 conectado!
27/07/2018 20:43:58 - INFO - Aguardando clientes ...
27/07/2018 20:44:13 - INFO - Porta 4444 aberta ...
27/07/2018 20:44:13 - INFO - Aguardando clientes ...
27/07/2018 20:44:18 - INFO - Cliente 0:0:0:0:0:0:0:1 conectado!
27/07/2018 20:44:18 - INFO - Aguardando clientes ...
27/07/2018 20:44:18 - INFO - Cliente 0:0:0:0:0:0:0:1 conectado!
27/07/2018 20:44:18 - INFO - Aguardando clientes ...
27/07/2018 20:44:23 - INFO - Cliente 0:0:0:0:0:0:0:1 conectado!
27/07/2018 20:44:23 - INFO - Aguardando clientes ...
27/07/2018 20:44:23 - INFO - Cliente 0:0:0:0:0:0:0:1 conectado!
27/07/2018 20:44:23 - INFO - Aguardando clientes ...
27/07/2018 20:44:48 - INFO - Porta 4444 aberta ...
27/07/2018 20:44:48 - INFO - Aguardando clientes ...
27/07/2018 20:44:49 - INFO - Cliente 0:0:0:0:0:0:0:1 conectado!
27/07/2018 20:44:49 - INFO - Aguardando clientes ...
27/07/2018 20:45:23 - INFO - Cliente 0:0:0:0:0:0:0:1 conectado!
27/07/2018 20:45:23 - INFO - Aguardando clientes ...
27/07/2018 20:46:14 - INFO - Porta 4444 aberta ...
27/07/2018 20:46:14 - INFO - Aguardando clientes ...
27/07/2018 20:46:16 - INFO - Cliente 0:0:0:0:0:0:0:1 conectado!
27/07/2018 20:46:17 - INFO - Aguardando clientes ...
27/07/2018 20:46:17 - INFO - Cliente 0:0:0:0:0:0:0:1 conectado!
27/07/2018 20:46:17 - INFO - Aguardando clientes ...
27/07/2018 20:46:31 - INFO - Cliente 0:0:0:0:0:0:0:1 conectado!
27/07/2018 20:46:31 - INFO - Aguardando clientes ...
27/07/2018 20:46:31 - INFO - Cliente 0:0:0:0:0:0:0:1 conectado!
27/07/2018 20:46:31 - INFO - Aguardando clientes ...
27/07/2018 20:47:37 - INFO - Porta 4444 aberta ...
27/07/2018 20:47:37 - INFO - Aguardando clientes ...
27/07/2018 20:47:39 - INFO - Cliente 0:0:0:0:0:0:0:1 conectado!
27/07/2018 20:47:39 - INFO - Aguardando clientes ...
27/07/2018 20:47:43 - INFO - Cliente 0:0:0:0:0:0:0:1 conectado!
27/07/2018 20:47:43 - INFO - Aguardando clientes ...
27/07/2018 20:47:43 - INFO - Cliente 0:0:0:0:0:0:0:1 conectado!
27/07/2018 20:47:43 - INFO - Aguardando clientes ...
27/07/2018 20:47:51 - INFO - Cliente 0:0:0:0:0:0:0:1 conectado!
27/07/2018 20:47:51 - INFO - Aguardando clientes ...
27/07/2018 20:47:51 - INFO - Cliente 0:0:0:0:0:0:0:1 conectado!
27/07/2018 20:47:51 - INFO - Aguardando clientes ...
27/07/2018 20:48:56 - INFO - Porta 4444 aberta ...
27/07/2018 20:48:56 - INFO - Aguardando clientes ...
27/07/2018 20:49:08 - INFO - Porta 4444 aberta ...
27/07/2018 20:49:08 - INFO - Aguardando clientes ...
27/07/2018 20:49:11 - INFO - Cliente 0:0:0:0:0:0:0:1 conectado!
27/07/2018 20:49:11 - INFO - Aguardando clientes ...
27/07/2018 20:49:11 - INFO - Cliente 0:0:0:0:0:0:0:1 conectado!
27/07/2018 20:49:11 - INFO - Aguardando clientes ...
27/07/2018 20:49:26 - INFO - Porta 4444 aberta ...
27/07/2018 20:49:26 - INFO - Aguardando clientes ...
27/07/2018 20:49:28 - INFO - Cliente 0:0:0:0:0:0:0:1 conectado!
27/07/2018 20:49:28 - INFO - Aguardando clientes ...
27/07/2018 20:49:29 - INFO - Cliente 0:0:0:0:0:0:0:1 conectado!
27/07/2018 20:49:29 - INFO - Aguardando clientes ...
27/07/2018 20:50:16 - INFO - Porta 4444 aberta ...
27/07/2018 20:50:16 - INFO - Aguardando clientes ...
27/07/2018 20:50:19 - INFO - Porta 4444 aberta ...
27/07/2018 20:50:19 - INFO - Aguardando clientes ...
27/07/2018 20:50:21 - INFO - Cliente 0:0:0:0:0:0:0:1 conectado!
27/07/2018 20:50:21 - INFO - Aguardando clientes ...
27/07/2018 20:50:21 - INFO - Cliente 0:0:0:0:0:0:0:1 conectado!
27/07/2018 20:50:21 - INFO - Aguardando clientes ...
27/07/2018 20:51:07 - INFO - Porta 4444 aberta ...
27/07/2018 20:51:07 - INFO - Aguardando clientes ...
27/07/2018 20:51:09 - INFO - Cliente 0:0:0:0:0:0:0:1 conectado!
27/07/2018 20:51:09 - INFO - Aguardando clientes ...
27/07/2018 20:51:09 - INFO - Cliente 0:0:0:0:0:0:0:1 conectado!
27/07/2018 20:51:09 - INFO - Aguardando clientes ...
27/07/2018 20:52:51 - INFO - Porta 4444 aberta ...
27/07/2018 20:52:51 - INFO - Aguardando clientes ...
27/07/2018 20:52:53 - INFO - Cliente 0:0:0:0:0:0:0:1 conectado!
27/07/2018 20:52:53 - INFO - Aguardando clientes ...
27/07/2018 20:52:53 - INFO - Cliente 0:0:0:0:0:0:0:1 conectado!
27/07/2018 20:52:53 - INFO - Aguardando clientes ...
27/07/2018 20:54:20 - INFO - Cliente 0:0:0:0:0:0:0:1 conectado!
27/07/2018 20:54:20 - INFO - Aguardando clientes ...
27/07/2018 20:54:20 - INFO - Cliente 0:0:0:0:0:0:0:1 conectado!
27/07/2018 20:54:20 - INFO - Aguardando clientes ...
27/07/2018 20:54:36 - INFO - Cliente 0:0:0:0:0:0:0:1 conectado!
27/07/2018 20:54:36 - INFO - Aguardando clientes ...
27/07/2018 20:54:39 - INFO - Cliente 0:0:0:0:0:0:0:1 conectado!
27/07/2018 20:54:39 - INFO - Aguardando clientes ...
27/07/2018 20:54:39 - INFO - Cliente 0:0:0:0:0:0:0:1 conectado!
27/07/2018 20:54:39 - INFO - Aguardando clientes ...
27/07/2018 20:54:43 - INFO - Cliente 0:0:0:0:0:0:0:1 conectado!
27/07/2018 20:54:43 - INFO - Aguardando clientes ...
27/07/2018 20:54:43 - INFO - Cliente 0:0:0:0:0:0:0:1 conectado!
27/07/2018 20:54:43 - INFO - Aguardando clientes ...
27/07/2018 20:56:10 - INFO - Porta 4444 aberta ...
27/07/2018 20:56:10 - INFO - Aguardando clientes ...
27/07/2018 20:56:13 - INFO - Cliente 0:0:0:0:0:0:0:1 conectado!
27/07/2018 20:56:13 - INFO - Aguardando clientes ...
27/07/2018 20:56:13 - INFO - Cliente 0:0:0:0:0:0:0:1 conectado!
27/07/2018 20:56:13 - INFO - Aguardando clientes ...
27/07/2018 20:59:38 - INFO - Porta 4444 aberta ...
27/07/2018 20:59:38 - INFO - Aguardando clientes ...
27/07/2018 20:59:40 - INFO - Cliente 0:0:0:0:0:0:0:1 conectado!
27/07/2018 20:59:40 - INFO - Aguardando clientes ...
27/07/2018 20:59:40 - INFO - Cliente 0:0:0:0:0:0:0:1 conectado!
27/07/2018 20:59:40 - INFO - Aguardando clientes ...
27/07/2018 21:02:36 - INFO - Porta 4444 aberta ...
27/07/2018 21:02:36 - INFO - Aguardando clientes ...
27/07/2018 21:02:38 - INFO - Cliente 0:0:0:0:0:0:0:1 conectado!
27/07/2018 21:02:38 - INFO - Aguardando clientes ...
27/07/2018 21:02:41 - INFO - Cliente 0:0:0:0:0:0:0:1 conectado!
27/07/2018 21:02:41 - INFO - Aguardando clientes ...
27/07/2018 21:02:55 - INFO - Porta 4444 aberta ...
27/07/2018 21:02:55 - INFO - Aguardando clientes ...
27/07/2018 21:02:58 - INFO - Cliente 0:0:0:0:0:0:0:1 conectado!
27/07/2018 21:02:58 - INFO - Aguardando clientes ...
27/07/2018 21:03:54 - INFO - Cliente 0:0:0:0:0:0:0:1 conectado!
27/07/2018 21:03:54 - INFO - Aguardando clientes ...
27/07/2018 21:06:50 - INFO - Porta 4444 aberta ...
27/07/2018 21:06:50 - INFO - Aguardando clientes ...
27/07/2018 21:06:55 - INFO - Porta 4444 aberta ...
27/07/2018 21:06:55 - INFO - Aguardando clientes ...
27/07/2018 21:06:58 - INFO - Cliente 0:0:0:0:0:0:0:1 conectado!
27/07/2018 21:06:58 - INFO - Aguardando clientes ...
27/07/2018 21:06:58 - INFO - Cliente 0:0:0:0:0:0:0:1 conectado!
27/07/2018 21:06:58 - INFO - Aguardando clientes ...
27/07/2018 21:07:36 - INFO - Cliente 0:0:0:0:0:0:0:1 conectado!
27/07/2018 21:07:36 - INFO - Aguardando clientes ...
27/07/2018 21:07:39 - INFO - Cliente 0:0:0:0:0:0:0:1 conectado!
27/07/2018 21:07:39 - INFO - Aguardando clientes ...
27/07/2018 21:07:39 - INFO - Cliente 0:0:0:0:0:0:0:1 conectado!
27/07/2018 21:07:39 - INFO - Aguardando clientes ...
